%YAML 1.1
%TAG !u! tag:unity3d.com,2011:
--- !u!1 &3439312123120064403
GameObject:
  m_ObjectHideFlags: 0
  m_CorrespondingSourceObject: {fileID: 0}
  m_PrefabInstance: {fileID: 0}
  m_PrefabAsset: {fileID: 0}
  serializedVersion: 6
  m_Component:
  - component: {fileID: 6994495044037132641}
  m_Layer: 0
  m_Name: B01
  m_TagString: Untagged
  m_Icon: {fileID: 0}
  m_NavMeshLayer: 0
  m_StaticEditorFlags: 0
  m_IsActive: 1
--- !u!4 &6994495044037132641
Transform:
  m_ObjectHideFlags: 0
  m_CorrespondingSourceObject: {fileID: 0}
  m_PrefabInstance: {fileID: 0}
  m_PrefabAsset: {fileID: 0}
  m_GameObject: {fileID: 3439312123120064403}
  m_LocalRotation: {x: 0, y: 0, z: 0, w: 1}
  m_LocalPosition: {x: 0, y: 0, z: 0}
  m_LocalScale: {x: 1, y: 1, z: 1}
  m_Children:
  - {fileID: 8573080139019449490}
  m_Father: {fileID: 0}
  m_RootOrder: 0
  m_LocalEulerAnglesHint: {x: 0, y: 0, z: 0}
--- !u!54 &8093956025662080619
Rigidbody:
  m_ObjectHideFlags: 0
  m_CorrespondingSourceObject: {fileID: 0}
  m_PrefabInstance: {fileID: 0}
  m_PrefabAsset: {fileID: 0}
  m_GameObject: {fileID: 8573080139019217074}
  serializedVersion: 2
  m_Mass: 1
  m_Drag: 0
  m_AngularDrag: 0.05
  m_UseGravity: 1
  m_IsKinematic: 0
  m_Interpolate: 0
  m_Constraints: 126
  m_CollisionDetection: 0
--- !u!65 &1111756108685189581
BoxCollider:
  m_ObjectHideFlags: 0
  m_CorrespondingSourceObject: {fileID: 0}
  m_PrefabInstance: {fileID: 0}
  m_PrefabAsset: {fileID: 0}
  m_GameObject: {fileID: 8573080139019217074}
  m_Material: {fileID: 0}
  m_IsTrigger: 0
  m_Enabled: 1
  serializedVersion: 2
  m_Size: {x: 0.64907545, y: 1.1779037, z: 0.4872193}
  m_Center: {x: 0, y: 0.5889517, z: 0}
--- !u!1001 &8573080139019316754
PrefabInstance:
  m_ObjectHideFlags: 0
  serializedVersion: 2
  m_Modification:
    m_TransformParent: {fileID: 6994495044037132641}
    m_Modifications:
    - target: {fileID: 100000, guid: bd3880f09cc8f004f8542bb5c45e0668, type: 3}
      propertyPath: m_Name
      value: B01
      objectReference: {fileID: 0}
    - target: {fileID: 100000, guid: bd3880f09cc8f004f8542bb5c45e0668, type: 3}
      propertyPath: m_TagString
      value: Cube
      objectReference: {fileID: 0}
    - target: {fileID: 100000, guid: bd3880f09cc8f004f8542bb5c45e0668, type: 3}
      propertyPath: m_Layer
      value: 10
      objectReference: {fileID: 0}
    - target: {fileID: 400000, guid: bd3880f09cc8f004f8542bb5c45e0668, type: 3}
      propertyPath: m_LocalPosition.x
      value: 0
      objectReference: {fileID: 0}
    - target: {fileID: 400000, guid: bd3880f09cc8f004f8542bb5c45e0668, type: 3}
      propertyPath: m_LocalPosition.y
      value: 0
      objectReference: {fileID: 0}
    - target: {fileID: 400000, guid: bd3880f09cc8f004f8542bb5c45e0668, type: 3}
      propertyPath: m_LocalPosition.z
      value: 0
      objectReference: {fileID: 0}
    - target: {fileID: 400000, guid: bd3880f09cc8f004f8542bb5c45e0668, type: 3}
      propertyPath: m_LocalRotation.x
      value: -0
      objectReference: {fileID: 0}
    - target: {fileID: 400000, guid: bd3880f09cc8f004f8542bb5c45e0668, type: 3}
      propertyPath: m_LocalRotation.y
      value: -0
      objectReference: {fileID: 0}
    - target: {fileID: 400000, guid: bd3880f09cc8f004f8542bb5c45e0668, type: 3}
      propertyPath: m_LocalRotation.z
      value: -0
      objectReference: {fileID: 0}
    - target: {fileID: 400000, guid: bd3880f09cc8f004f8542bb5c45e0668, type: 3}
      propertyPath: m_LocalRotation.w
      value: 1
      objectReference: {fileID: 0}
    - target: {fileID: 400000, guid: bd3880f09cc8f004f8542bb5c45e0668, type: 3}
      propertyPath: m_RootOrder
      value: 0
      objectReference: {fileID: 0}
    - target: {fileID: 400000, guid: bd3880f09cc8f004f8542bb5c45e0668, type: 3}
      propertyPath: m_LocalEulerAnglesHint.x
      value: 0
      objectReference: {fileID: 0}
    - target: {fileID: 400000, guid: bd3880f09cc8f004f8542bb5c45e0668, type: 3}
      propertyPath: m_LocalEulerAnglesHint.y
      value: 0
      objectReference: {fileID: 0}
    - target: {fileID: 400000, guid: bd3880f09cc8f004f8542bb5c45e0668, type: 3}
      propertyPath: m_LocalEulerAnglesHint.z
      value: 0
      objectReference: {fileID: 0}
    - target: {fileID: 400000, guid: bd3880f09cc8f004f8542bb5c45e0668, type: 3}
      propertyPath: m_LocalScale.x
      value: 50
      objectReference: {fileID: 0}
    - target: {fileID: 400000, guid: bd3880f09cc8f004f8542bb5c45e0668, type: 3}
      propertyPath: m_LocalScale.y
      value: 50
      objectReference: {fileID: 0}
    - target: {fileID: 400000, guid: bd3880f09cc8f004f8542bb5c45e0668, type: 3}
      propertyPath: m_LocalScale.z
      value: 50
      objectReference: {fileID: 0}
    m_RemovedComponents: []
  m_SourcePrefab: {fileID: 100100000, guid: bd3880f09cc8f004f8542bb5c45e0668, type: 3}
--- !u!1 &8573080139019217074 stripped
GameObject:
  m_CorrespondingSourceObject: {fileID: 100000, guid: bd3880f09cc8f004f8542bb5c45e0668,
    type: 3}
  m_PrefabInstance: {fileID: 8573080139019316754}
  m_PrefabAsset: {fileID: 0}
--- !u!4 &8573080139019449490 stripped
Transform:
  m_CorrespondingSourceObject: {fileID: 400000, guid: bd3880f09cc8f004f8542bb5c45e0668,
    type: 3}
  m_PrefabInstance: {fileID: 8573080139019316754}
  m_PrefabAsset: {fileID: 0}
