{
    "m_SerializedProperties": [
        {
            "typeInfo": {
                "fullName": "UnityEditor.ShaderGraph.ColorShaderProperty"
            },
            "JSONnodeData": "{\n    \"m_Value\": {\n        \"r\": 0.0,\n        \"g\": 1.0,\n        \"b\": 1.0,\n        \"a\": 0.0\n    },\n    \"m_Name\": \"Color\",\n    \"m_GeneratePropertyBlock\": true,\n    \"m_Guid\": {\n        \"m_GuidSerialized\": \"0ff33a0d-d841-450f-8709-c979a321186c\"\n    },\n    \"m_OverrideReferenceName\": \"\",\n    \"m_ColorMode\": 1,\n    \"m_Hidden\": false\n}"
        },
        {
            "typeInfo": {
                "fullName": "UnityEditor.ShaderGraph.TextureShaderProperty"
            },
            "JSONnodeData": "{\n    \"m_Value\": {\n        \"m_SerializedTexture\": \"\",\n        \"m_Guid\": \"e50f7c89102dcae47a4abb7c9b12a0d8\"\n    },\n    \"m_Name\": \"Main Texture\",\n    \"m_GeneratePropertyBlock\": true,\n    \"m_Guid\": {\n        \"m_GuidSerialized\": \"b95e488e-ba6f-49d8-b119-b9205350831b\"\n    },\n    \"m_OverrideReferenceName\": \"\",\n    \"m_Modifiable\": true,\n    \"m_DefaultType\": 0\n}"
        },
        {
            "typeInfo": {
                "fullName": "UnityEditor.ShaderGraph.Vector2ShaderProperty"
            },
            "JSONnodeData": "{\n    \"m_Value\": {\n        \"x\": 1.0,\n        \"y\": 1.0,\n        \"z\": 0.0,\n        \"w\": 0.0\n    },\n    \"m_Name\": \"Main Tiling\",\n    \"m_GeneratePropertyBlock\": true,\n    \"m_Guid\": {\n        \"m_GuidSerialized\": \"02736681-de49-4ca8-8ff8-44114b968b27\"\n    },\n    \"m_OverrideReferenceName\": \"\"\n}"
        },
        {
            "typeInfo": {
                "fullName": "UnityEditor.ShaderGraph.Vector2ShaderProperty"
            },
            "JSONnodeData": "{\n    \"m_Value\": {\n        \"x\": 1.0,\n        \"y\": 0.0,\n        \"z\": 0.0,\n        \"w\": 0.0\n    },\n    \"m_Name\": \"Main Scroll Speed\",\n    \"m_GeneratePropertyBlock\": true,\n    \"m_Guid\": {\n        \"m_GuidSerialized\": \"bffafd67-ffa9-4fdd-849f-8a01ef2836ee\"\n    },\n    \"m_OverrideReferenceName\": \"\"\n}"
        }
    ],
    "m_GUID": {
        "m_GuidSerialized": "f6fe8f24-f879-40e9-ad76-633ffab80d24"
    },
    "m_SerializableNodes": [
        {
            "typeInfo": {
                "fullName": "UnityEditor.ShaderGraph.MultiplyNode"
            },
            "JSONnodeData": "{\n    \"m_GuidSerialized\": \"6c860f4d-ae10-4de5-802a-7b7bc93e779b\",\n    \"m_Name\": \"Multiply\",\n    \"m_DrawState\": {\n        \"m_Expanded\": true,\n        \"m_Position\": {\n            \"serializedVersion\": \"2\",\n            \"x\": 688.7073364257813,\n            \"y\": 99.7666244506836,\n            \"width\": 122.0,\n            \"height\": 118.0\n        }\n    },\n    \"m_SerializableSlots\": [\n        {\n            \"typeInfo\": {\n                \"fullName\": \"UnityEditor.ShaderGraph.DynamicValueMaterialSlot\"\n            },\n            \"JSONnodeData\": \"{\\n    \\\"m_Id\\\": 0,\\n    \\\"m_DisplayName\\\": \\\"A\\\",\\n    \\\"m_SlotType\\\": 0,\\n    \\\"m_Priority\\\": 2147483647,\\n    \\\"m_Hidden\\\": false,\\n    \\\"m_ShaderOutputName\\\": \\\"A\\\",\\n    \\\"m_StageCapability\\\": 3,\\n    \\\"m_Value\\\": {\\n        \\\"e00\\\": 0.0,\\n        \\\"e01\\\": 0.0,\\n        \\\"e02\\\": 0.0,\\n        \\\"e03\\\": 0.0,\\n        \\\"e10\\\": 0.0,\\n        \\\"e11\\\": 0.0,\\n        \\\"e12\\\": 0.0,\\n        \\\"e13\\\": 0.0,\\n        \\\"e20\\\": 0.0,\\n        \\\"e21\\\": 0.0,\\n        \\\"e22\\\": 0.0,\\n        \\\"e23\\\": 0.0,\\n        \\\"e30\\\": 0.0,\\n        \\\"e31\\\": 0.0,\\n        \\\"e32\\\": 0.0,\\n        \\\"e33\\\": 0.0\\n    },\\n    \\\"m_DefaultValue\\\": {\\n        \\\"e00\\\": 1.0,\\n        \\\"e01\\\": 0.0,\\n        \\\"e02\\\": 0.0,\\n        \\\"e03\\\": 0.0,\\n        \\\"e10\\\": 0.0,\\n        \\\"e11\\\": 1.0,\\n        \\\"e12\\\": 0.0,\\n        \\\"e13\\\": 0.0,\\n        \\\"e20\\\": 0.0,\\n        \\\"e21\\\": 0.0,\\n        \\\"e22\\\": 1.0,\\n        \\\"e23\\\": 0.0,\\n        \\\"e30\\\": 0.0,\\n        \\\"e31\\\": 0.0,\\n        \\\"e32\\\": 0.0,\\n        \\\"e33\\\": 1.0\\n    }\\n}\"\n        },\n        {\n            \"typeInfo\": {\n                \"fullName\": \"UnityEditor.ShaderGraph.DynamicValueMaterialSlot\"\n            },\n            \"JSONnodeData\": \"{\\n    \\\"m_Id\\\": 1,\\n    \\\"m_DisplayName\\\": \\\"B\\\",\\n    \\\"m_SlotType\\\": 0,\\n    \\\"m_Priority\\\": 2147483647,\\n    \\\"m_Hidden\\\": false,\\n    \\\"m_ShaderOutputName\\\": \\\"B\\\",\\n    \\\"m_StageCapability\\\": 3,\\n    \\\"m_Value\\\": {\\n        \\\"e00\\\": 2.0,\\n        \\\"e01\\\": 2.0,\\n        \\\"e02\\\": 2.0,\\n        \\\"e03\\\": 2.0,\\n        \\\"e10\\\": 2.0,\\n        \\\"e11\\\": 2.0,\\n        \\\"e12\\\": 2.0,\\n        \\\"e13\\\": 2.0,\\n        \\\"e20\\\": 2.0,\\n        \\\"e21\\\": 2.0,\\n        \\\"e22\\\": 2.0,\\n        \\\"e23\\\": 2.0,\\n        \\\"e30\\\": 2.0,\\n        \\\"e31\\\": 2.0,\\n        \\\"e32\\\": 2.0,\\n        \\\"e33\\\": 2.0\\n    },\\n    \\\"m_DefaultValue\\\": {\\n        \\\"e00\\\": 1.0,\\n        \\\"e01\\\": 0.0,\\n        \\\"e02\\\": 0.0,\\n        \\\"e03\\\": 0.0,\\n        \\\"e10\\\": 0.0,\\n        \\\"e11\\\": 1.0,\\n        \\\"e12\\\": 0.0,\\n        \\\"e13\\\": 0.0,\\n        \\\"e20\\\": 0.0,\\n        \\\"e21\\\": 0.0,\\n        \\\"e22\\\": 1.0,\\n        \\\"e23\\\": 0.0,\\n        \\\"e30\\\": 0.0,\\n        \\\"e31\\\": 0.0,\\n        \\\"e32\\\": 0.0,\\n        \\\"e33\\\": 1.0\\n    }\\n}\"\n        },\n        {\n            \"typeInfo\": {\n                \"fullName\": \"UnityEditor.ShaderGraph.DynamicValueMaterialSlot\"\n            },\n            \"JSONnodeData\": \"{\\n    \\\"m_Id\\\": 2,\\n    \\\"m_DisplayName\\\": \\\"Out\\\",\\n    \\\"m_SlotType\\\": 1,\\n    \\\"m_Priority\\\": 2147483647,\\n    \\\"m_Hidden\\\": false,\\n    \\\"m_ShaderOutputName\\\": \\\"Out\\\",\\n    \\\"m_StageCapability\\\": 3,\\n    \\\"m_Value\\\": {\\n        \\\"e00\\\": 0.0,\\n        \\\"e01\\\": 0.0,\\n        \\\"e02\\\": 0.0,\\n        \\\"e03\\\": 0.0,\\n        \\\"e10\\\": 0.0,\\n        \\\"e11\\\": 0.0,\\n        \\\"e12\\\": 0.0,\\n        \\\"e13\\\": 0.0,\\n        \\\"e20\\\": 0.0,\\n        \\\"e21\\\": 0.0,\\n        \\\"e22\\\": 0.0,\\n        \\\"e23\\\": 0.0,\\n        \\\"e30\\\": 0.0,\\n        \\\"e31\\\": 0.0,\\n        \\\"e32\\\": 0.0,\\n        \\\"e33\\\": 0.0\\n    },\\n    \\\"m_DefaultValue\\\": {\\n        \\\"e00\\\": 1.0,\\n        \\\"e01\\\": 0.0,\\n        \\\"e02\\\": 0.0,\\n        \\\"e03\\\": 0.0,\\n        \\\"e10\\\": 0.0,\\n        \\\"e11\\\": 1.0,\\n        \\\"e12\\\": 0.0,\\n        \\\"e13\\\": 0.0,\\n        \\\"e20\\\": 0.0,\\n        \\\"e21\\\": 0.0,\\n        \\\"e22\\\": 1.0,\\n        \\\"e23\\\": 0.0,\\n        \\\"e30\\\": 0.0,\\n        \\\"e31\\\": 0.0,\\n        \\\"e32\\\": 0.0,\\n        \\\"e33\\\": 1.0\\n    }\\n}\"\n        }\n    ],\n    \"m_PreviewExpanded\": false\n}"
        },
        {
            "typeInfo": {
                "fullName": "UnityEditor.ShaderGraph.MultiplyNode"
            },
            "JSONnodeData": "{\n    \"m_GuidSerialized\": \"bbf46341-c5ca-4088-abc8-a01838b34117\",\n    \"m_Name\": \"Multiply\",\n    \"m_DrawState\": {\n        \"m_Expanded\": true,\n        \"m_Position\": {\n            \"serializedVersion\": \"2\",\n            \"x\": 773.28564453125,\n            \"y\": -62.226776123046878,\n            \"width\": 122.0,\n            \"height\": 118.0\n        }\n    },\n    \"m_SerializableSlots\": [\n        {\n            \"typeInfo\": {\n                \"fullName\": \"UnityEditor.ShaderGraph.DynamicValueMaterialSlot\"\n            },\n            \"JSONnodeData\": \"{\\n    \\\"m_Id\\\": 0,\\n    \\\"m_DisplayName\\\": \\\"A\\\",\\n    \\\"m_SlotType\\\": 0,\\n    \\\"m_Priority\\\": 2147483647,\\n    \\\"m_Hidden\\\": false,\\n    \\\"m_ShaderOutputName\\\": \\\"A\\\",\\n    \\\"m_StageCapability\\\": 3,\\n    \\\"m_Value\\\": {\\n        \\\"e00\\\": 0.0,\\n        \\\"e01\\\": 0.0,\\n        \\\"e02\\\": 0.0,\\n        \\\"e03\\\": 0.0,\\n        \\\"e10\\\": 0.0,\\n        \\\"e11\\\": 0.0,\\n        \\\"e12\\\": 0.0,\\n        \\\"e13\\\": 0.0,\\n        \\\"e20\\\": 0.0,\\n        \\\"e21\\\": 0.0,\\n        \\\"e22\\\": 0.0,\\n        \\\"e23\\\": 0.0,\\n        \\\"e30\\\": 0.0,\\n        \\\"e31\\\": 0.0,\\n        \\\"e32\\\": 0.0,\\n        \\\"e33\\\": 0.0\\n    },\\n    \\\"m_DefaultValue\\\": {\\n        \\\"e00\\\": 1.0,\\n        \\\"e01\\\": 0.0,\\n        \\\"e02\\\": 0.0,\\n        \\\"e03\\\": 0.0,\\n        \\\"e10\\\": 0.0,\\n        \\\"e11\\\": 1.0,\\n        \\\"e12\\\": 0.0,\\n        \\\"e13\\\": 0.0,\\n        \\\"e20\\\": 0.0,\\n        \\\"e21\\\": 0.0,\\n        \\\"e22\\\": 1.0,\\n        \\\"e23\\\": 0.0,\\n        \\\"e30\\\": 0.0,\\n        \\\"e31\\\": 0.0,\\n        \\\"e32\\\": 0.0,\\n        \\\"e33\\\": 1.0\\n    }\\n}\"\n        },\n        {\n            \"typeInfo\": {\n                \"fullName\": \"UnityEditor.ShaderGraph.DynamicValueMaterialSlot\"\n            },\n            \"JSONnodeData\": \"{\\n    \\\"m_Id\\\": 1,\\n    \\\"m_DisplayName\\\": \\\"B\\\",\\n    \\\"m_SlotType\\\": 0,\\n    \\\"m_Priority\\\": 2147483647,\\n    \\\"m_Hidden\\\": false,\\n    \\\"m_ShaderOutputName\\\": \\\"B\\\",\\n    \\\"m_StageCapability\\\": 3,\\n    \\\"m_Value\\\": {\\n        \\\"e00\\\": 2.0,\\n        \\\"e01\\\": 2.0,\\n        \\\"e02\\\": 2.0,\\n        \\\"e03\\\": 2.0,\\n        \\\"e10\\\": 2.0,\\n        \\\"e11\\\": 2.0,\\n        \\\"e12\\\": 2.0,\\n        \\\"e13\\\": 2.0,\\n        \\\"e20\\\": 2.0,\\n        \\\"e21\\\": 2.0,\\n        \\\"e22\\\": 2.0,\\n        \\\"e23\\\": 2.0,\\n        \\\"e30\\\": 2.0,\\n        \\\"e31\\\": 2.0,\\n        \\\"e32\\\": 2.0,\\n        \\\"e33\\\": 2.0\\n    },\\n    \\\"m_DefaultValue\\\": {\\n        \\\"e00\\\": 1.0,\\n        \\\"e01\\\": 0.0,\\n        \\\"e02\\\": 0.0,\\n        \\\"e03\\\": 0.0,\\n        \\\"e10\\\": 0.0,\\n        \\\"e11\\\": 1.0,\\n        \\\"e12\\\": 0.0,\\n        \\\"e13\\\": 0.0,\\n        \\\"e20\\\": 0.0,\\n        \\\"e21\\\": 0.0,\\n        \\\"e22\\\": 1.0,\\n        \\\"e23\\\": 0.0,\\n        \\\"e30\\\": 0.0,\\n        \\\"e31\\\": 0.0,\\n        \\\"e32\\\": 0.0,\\n        \\\"e33\\\": 1.0\\n    }\\n}\"\n        },\n        {\n            \"typeInfo\": {\n                \"fullName\": \"UnityEditor.ShaderGraph.DynamicValueMaterialSlot\"\n            },\n            \"JSONnodeData\": \"{\\n    \\\"m_Id\\\": 2,\\n    \\\"m_DisplayName\\\": \\\"Out\\\",\\n    \\\"m_SlotType\\\": 1,\\n    \\\"m_Priority\\\": 2147483647,\\n    \\\"m_Hidden\\\": false,\\n    \\\"m_ShaderOutputName\\\": \\\"Out\\\",\\n    \\\"m_StageCapability\\\": 3,\\n    \\\"m_Value\\\": {\\n        \\\"e00\\\": 0.0,\\n        \\\"e01\\\": 0.0,\\n        \\\"e02\\\": 0.0,\\n        \\\"e03\\\": 0.0,\\n        \\\"e10\\\": 0.0,\\n        \\\"e11\\\": 0.0,\\n        \\\"e12\\\": 0.0,\\n        \\\"e13\\\": 0.0,\\n        \\\"e20\\\": 0.0,\\n        \\\"e21\\\": 0.0,\\n        \\\"e22\\\": 0.0,\\n        \\\"e23\\\": 0.0,\\n        \\\"e30\\\": 0.0,\\n        \\\"e31\\\": 0.0,\\n        \\\"e32\\\": 0.0,\\n        \\\"e33\\\": 0.0\\n    },\\n    \\\"m_DefaultValue\\\": {\\n        \\\"e00\\\": 1.0,\\n        \\\"e01\\\": 0.0,\\n        \\\"e02\\\": 0.0,\\n        \\\"e03\\\": 0.0,\\n        \\\"e10\\\": 0.0,\\n        \\\"e11\\\": 1.0,\\n        \\\"e12\\\": 0.0,\\n        \\\"e13\\\": 0.0,\\n        \\\"e20\\\": 0.0,\\n        \\\"e21\\\": 0.0,\\n        \\\"e22\\\": 1.0,\\n        \\\"e23\\\": 0.0,\\n        \\\"e30\\\": 0.0,\\n        \\\"e31\\\": 0.0,\\n        \\\"e32\\\": 0.0,\\n        \\\"e33\\\": 1.0\\n    }\\n}\"\n        }\n    ],\n    \"m_PreviewExpanded\": false\n}"
        },
        {
            "typeInfo": {
                "fullName": "UnityEditor.ShaderGraph.MultiplyNode"
            },
            "JSONnodeData": "{\n    \"m_GuidSerialized\": \"f9a15372-d9db-4791-8548-cf4ae3f8f603\",\n    \"m_Name\": \"Multiply\",\n    \"m_DrawState\": {\n        \"m_Expanded\": true,\n        \"m_Position\": {\n            \"serializedVersion\": \"2\",\n            \"x\": 883.2857666015625,\n            \"y\": -179.22677612304688,\n            \"width\": 122.0,\n            \"height\": 118.0\n        }\n    },\n    \"m_SerializableSlots\": [\n        {\n            \"typeInfo\": {\n                \"fullName\": \"UnityEditor.ShaderGraph.DynamicValueMaterialSlot\"\n            },\n            \"JSONnodeData\": \"{\\n    \\\"m_Id\\\": 0,\\n    \\\"m_DisplayName\\\": \\\"A\\\",\\n    \\\"m_SlotType\\\": 0,\\n    \\\"m_Priority\\\": 2147483647,\\n    \\\"m_Hidden\\\": false,\\n    \\\"m_ShaderOutputName\\\": \\\"A\\\",\\n    \\\"m_StageCapability\\\": 3,\\n    \\\"m_Value\\\": {\\n        \\\"e00\\\": 0.0,\\n        \\\"e01\\\": 0.0,\\n        \\\"e02\\\": 0.0,\\n        \\\"e03\\\": 0.0,\\n        \\\"e10\\\": 0.0,\\n        \\\"e11\\\": 0.0,\\n        \\\"e12\\\": 0.0,\\n        \\\"e13\\\": 0.0,\\n        \\\"e20\\\": 0.0,\\n        \\\"e21\\\": 0.0,\\n        \\\"e22\\\": 0.0,\\n        \\\"e23\\\": 0.0,\\n        \\\"e30\\\": 0.0,\\n        \\\"e31\\\": 0.0,\\n        \\\"e32\\\": 0.0,\\n        \\\"e33\\\": 0.0\\n    },\\n    \\\"m_DefaultValue\\\": {\\n        \\\"e00\\\": 1.0,\\n        \\\"e01\\\": 0.0,\\n        \\\"e02\\\": 0.0,\\n        \\\"e03\\\": 0.0,\\n        \\\"e10\\\": 0.0,\\n        \\\"e11\\\": 1.0,\\n        \\\"e12\\\": 0.0,\\n        \\\"e13\\\": 0.0,\\n        \\\"e20\\\": 0.0,\\n        \\\"e21\\\": 0.0,\\n        \\\"e22\\\": 1.0,\\n        \\\"e23\\\": 0.0,\\n        \\\"e30\\\": 0.0,\\n        \\\"e31\\\": 0.0,\\n        \\\"e32\\\": 0.0,\\n        \\\"e33\\\": 1.0\\n    }\\n}\"\n        },\n        {\n            \"typeInfo\": {\n                \"fullName\": \"UnityEditor.ShaderGraph.DynamicValueMaterialSlot\"\n            },\n            \"JSONnodeData\": \"{\\n    \\\"m_Id\\\": 1,\\n    \\\"m_DisplayName\\\": \\\"B\\\",\\n    \\\"m_SlotType\\\": 0,\\n    \\\"m_Priority\\\": 2147483647,\\n    \\\"m_Hidden\\\": false,\\n    \\\"m_ShaderOutputName\\\": \\\"B\\\",\\n    \\\"m_StageCapability\\\": 3,\\n    \\\"m_Value\\\": {\\n        \\\"e00\\\": 2.0,\\n        \\\"e01\\\": 2.0,\\n        \\\"e02\\\": 2.0,\\n        \\\"e03\\\": 2.0,\\n        \\\"e10\\\": 2.0,\\n        \\\"e11\\\": 2.0,\\n        \\\"e12\\\": 2.0,\\n        \\\"e13\\\": 2.0,\\n        \\\"e20\\\": 2.0,\\n        \\\"e21\\\": 2.0,\\n        \\\"e22\\\": 2.0,\\n        \\\"e23\\\": 2.0,\\n        \\\"e30\\\": 2.0,\\n        \\\"e31\\\": 2.0,\\n        \\\"e32\\\": 2.0,\\n        \\\"e33\\\": 2.0\\n    },\\n    \\\"m_DefaultValue\\\": {\\n        \\\"e00\\\": 1.0,\\n        \\\"e01\\\": 0.0,\\n        \\\"e02\\\": 0.0,\\n        \\\"e03\\\": 0.0,\\n        \\\"e10\\\": 0.0,\\n        \\\"e11\\\": 1.0,\\n        \\\"e12\\\": 0.0,\\n        \\\"e13\\\": 0.0,\\n        \\\"e20\\\": 0.0,\\n        \\\"e21\\\": 0.0,\\n        \\\"e22\\\": 1.0,\\n        \\\"e23\\\": 0.0,\\n        \\\"e30\\\": 0.0,\\n        \\\"e31\\\": 0.0,\\n        \\\"e32\\\": 0.0,\\n        \\\"e33\\\": 1.0\\n    }\\n}\"\n        },\n        {\n            \"typeInfo\": {\n                \"fullName\": \"UnityEditor.ShaderGraph.DynamicValueMaterialSlot\"\n            },\n            \"JSONnodeData\": \"{\\n    \\\"m_Id\\\": 2,\\n    \\\"m_DisplayName\\\": \\\"Out\\\",\\n    \\\"m_SlotType\\\": 1,\\n    \\\"m_Priority\\\": 2147483647,\\n    \\\"m_Hidden\\\": false,\\n    \\\"m_ShaderOutputName\\\": \\\"Out\\\",\\n    \\\"m_StageCapability\\\": 3,\\n    \\\"m_Value\\\": {\\n        \\\"e00\\\": 0.0,\\n        \\\"e01\\\": 0.0,\\n        \\\"e02\\\": 0.0,\\n        \\\"e03\\\": 0.0,\\n        \\\"e10\\\": 0.0,\\n        \\\"e11\\\": 0.0,\\n        \\\"e12\\\": 0.0,\\n        \\\"e13\\\": 0.0,\\n        \\\"e20\\\": 0.0,\\n        \\\"e21\\\": 0.0,\\n        \\\"e22\\\": 0.0,\\n        \\\"e23\\\": 0.0,\\n        \\\"e30\\\": 0.0,\\n        \\\"e31\\\": 0.0,\\n        \\\"e32\\\": 0.0,\\n        \\\"e33\\\": 0.0\\n    },\\n    \\\"m_DefaultValue\\\": {\\n        \\\"e00\\\": 1.0,\\n        \\\"e01\\\": 0.0,\\n        \\\"e02\\\": 0.0,\\n        \\\"e03\\\": 0.0,\\n        \\\"e10\\\": 0.0,\\n        \\\"e11\\\": 1.0,\\n        \\\"e12\\\": 0.0,\\n        \\\"e13\\\": 0.0,\\n        \\\"e20\\\": 0.0,\\n        \\\"e21\\\": 0.0,\\n        \\\"e22\\\": 1.0,\\n        \\\"e23\\\": 0.0,\\n        \\\"e30\\\": 0.0,\\n        \\\"e31\\\": 0.0,\\n        \\\"e32\\\": 0.0,\\n        \\\"e33\\\": 1.0\\n    }\\n}\"\n        }\n    ],\n    \"m_PreviewExpanded\": false\n}"
        },
        {
            "typeInfo": {
                "fullName": "UnityEditor.ShaderGraph.PropertyNode"
            },
            "JSONnodeData": "{\n    \"m_GuidSerialized\": \"3ad0b991-9556-4d61-b189-9e2b63d3df74\",\n    \"m_Name\": \"Property\",\n    \"m_DrawState\": {\n        \"m_Expanded\": true,\n        \"m_Position\": {\n            \"serializedVersion\": \"2\",\n            \"x\": 720.2854614257813,\n            \"y\": -234.22671508789063,\n            \"width\": 91.0,\n            \"height\": 77.0\n        }\n    },\n    \"m_SerializableSlots\": [\n        {\n            \"typeInfo\": {\n                \"fullName\": \"UnityEditor.ShaderGraph.Vector4MaterialSlot\"\n            },\n            \"JSONnodeData\": \"{\\n    \\\"m_Id\\\": 0,\\n    \\\"m_DisplayName\\\": \\\"Color\\\",\\n    \\\"m_SlotType\\\": 1,\\n    \\\"m_Priority\\\": 2147483647,\\n    \\\"m_Hidden\\\": false,\\n    \\\"m_ShaderOutputName\\\": \\\"Out\\\",\\n    \\\"m_StageCapability\\\": 3,\\n    \\\"m_Value\\\": {\\n        \\\"x\\\": 0.0,\\n        \\\"y\\\": 0.0,\\n        \\\"z\\\": 0.0,\\n        \\\"w\\\": 0.0\\n    },\\n    \\\"m_DefaultValue\\\": {\\n        \\\"x\\\": 0.0,\\n        \\\"y\\\": 0.0,\\n        \\\"z\\\": 0.0,\\n        \\\"w\\\": 0.0\\n    }\\n}\"\n        }\n    ],\n    \"m_PreviewExpanded\": true,\n    \"m_PropertyGuidSerialized\": \"0ff33a0d-d841-450f-8709-c979a321186c\"\n}"
        },
        {
            "typeInfo": {
                "fullName": "UnityEditor.ShaderGraph.SplitNode"
            },
            "JSONnodeData": "{\n    \"m_GuidSerialized\": \"294e9fa1-0dce-4481-a4fa-bab68ccd5093\",\n    \"m_Name\": \"Split\",\n    \"m_DrawState\": {\n        \"m_Expanded\": true,\n        \"m_Position\": {\n            \"serializedVersion\": \"2\",\n            \"x\": 519.034912109375,\n            \"y\": -169.346435546875,\n            \"width\": 114.0,\n            \"height\": 149.0\n        }\n    },\n    \"m_SerializableSlots\": [\n        {\n            \"typeInfo\": {\n                \"fullName\": \"UnityEditor.ShaderGraph.DynamicVectorMaterialSlot\"\n            },\n            \"JSONnodeData\": \"{\\n    \\\"m_Id\\\": 0,\\n    \\\"m_DisplayName\\\": \\\"In\\\",\\n    \\\"m_SlotType\\\": 0,\\n    \\\"m_Priority\\\": 2147483647,\\n    \\\"m_Hidden\\\": false,\\n    \\\"m_ShaderOutputName\\\": \\\"In\\\",\\n    \\\"m_StageCapability\\\": 3,\\n    \\\"m_Value\\\": {\\n        \\\"x\\\": 0.0,\\n        \\\"y\\\": 0.0,\\n        \\\"z\\\": 0.0,\\n        \\\"w\\\": 0.0\\n    },\\n    \\\"m_DefaultValue\\\": {\\n        \\\"x\\\": 0.0,\\n        \\\"y\\\": 0.0,\\n        \\\"z\\\": 0.0,\\n        \\\"w\\\": 0.0\\n    }\\n}\"\n        },\n        {\n            \"typeInfo\": {\n                \"fullName\": \"UnityEditor.ShaderGraph.Vector1MaterialSlot\"\n            },\n            \"JSONnodeData\": \"{\\n    \\\"m_Id\\\": 1,\\n    \\\"m_DisplayName\\\": \\\"R\\\",\\n    \\\"m_SlotType\\\": 1,\\n    \\\"m_Priority\\\": 2147483647,\\n    \\\"m_Hidden\\\": false,\\n    \\\"m_ShaderOutputName\\\": \\\"R\\\",\\n    \\\"m_StageCapability\\\": 3,\\n    \\\"m_Value\\\": 0.0,\\n    \\\"m_DefaultValue\\\": 0.0,\\n    \\\"m_Labels\\\": [\\n        \\\"X\\\"\\n    ]\\n}\"\n        },\n        {\n            \"typeInfo\": {\n                \"fullName\": \"UnityEditor.ShaderGraph.Vector1MaterialSlot\"\n            },\n            \"JSONnodeData\": \"{\\n    \\\"m_Id\\\": 2,\\n    \\\"m_DisplayName\\\": \\\"G\\\",\\n    \\\"m_SlotType\\\": 1,\\n    \\\"m_Priority\\\": 2147483647,\\n    \\\"m_Hidden\\\": false,\\n    \\\"m_ShaderOutputName\\\": \\\"G\\\",\\n    \\\"m_StageCapability\\\": 3,\\n    \\\"m_Value\\\": 0.0,\\n    \\\"m_DefaultValue\\\": 0.0,\\n    \\\"m_Labels\\\": [\\n        \\\"X\\\"\\n    ]\\n}\"\n        },\n        {\n            \"typeInfo\": {\n                \"fullName\": \"UnityEditor.ShaderGraph.Vector1MaterialSlot\"\n            },\n            \"JSONnodeData\": \"{\\n    \\\"m_Id\\\": 3,\\n    \\\"m_DisplayName\\\": \\\"B\\\",\\n    \\\"m_SlotType\\\": 1,\\n    \\\"m_Priority\\\": 2147483647,\\n    \\\"m_Hidden\\\": false,\\n    \\\"m_ShaderOutputName\\\": \\\"B\\\",\\n    \\\"m_StageCapability\\\": 3,\\n    \\\"m_Value\\\": 0.0,\\n    \\\"m_DefaultValue\\\": 0.0,\\n    \\\"m_Labels\\\": [\\n        \\\"X\\\"\\n    ]\\n}\"\n        },\n        {\n            \"typeInfo\": {\n                \"fullName\": \"UnityEditor.ShaderGraph.Vector1MaterialSlot\"\n            },\n            \"JSONnodeData\": \"{\\n    \\\"m_Id\\\": 4,\\n    \\\"m_DisplayName\\\": \\\"A\\\",\\n    \\\"m_SlotType\\\": 1,\\n    \\\"m_Priority\\\": 2147483647,\\n    \\\"m_Hidden\\\": false,\\n    \\\"m_ShaderOutputName\\\": \\\"A\\\",\\n    \\\"m_StageCapability\\\": 3,\\n    \\\"m_Value\\\": 0.0,\\n    \\\"m_DefaultValue\\\": 0.0,\\n    \\\"m_Labels\\\": [\\n        \\\"X\\\"\\n    ]\\n}\"\n        }\n    ],\n    \"m_PreviewExpanded\": true\n}"
        },
        {
            "typeInfo": {
                "fullName": "UnityEditor.ShaderGraph.PropertyNode"
            },
            "JSONnodeData": "{\n    \"m_GuidSerialized\": \"4c9a9a4b-9b5e-492a-8565-b294813f6dd6\",\n    \"m_Name\": \"Property\",\n    \"m_DrawState\": {\n        \"m_Expanded\": true,\n        \"m_Position\": {\n            \"serializedVersion\": \"2\",\n            \"x\": -167.58905029296876,\n            \"y\": 211.335693359375,\n            \"width\": 107.0,\n            \"height\": 77.0\n        }\n    },\n    \"m_SerializableSlots\": [\n        {\n            \"typeInfo\": {\n                \"fullName\": \"UnityEditor.ShaderGraph.Vector2MaterialSlot\"\n            },\n            \"JSONnodeData\": \"{\\n    \\\"m_Id\\\": 0,\\n    \\\"m_DisplayName\\\": \\\"Main Tiling\\\",\\n    \\\"m_SlotType\\\": 1,\\n    \\\"m_Priority\\\": 2147483647,\\n    \\\"m_Hidden\\\": false,\\n    \\\"m_ShaderOutputName\\\": \\\"Out\\\",\\n    \\\"m_StageCapability\\\": 3,\\n    \\\"m_Value\\\": {\\n        \\\"x\\\": 0.0,\\n        \\\"y\\\": 0.0\\n    },\\n    \\\"m_DefaultValue\\\": {\\n        \\\"x\\\": 0.0,\\n        \\\"y\\\": 0.0\\n    },\\n    \\\"m_Labels\\\": [\\n        \\\"X\\\",\\n        \\\"Y\\\"\\n    ]\\n}\"\n        }\n    ],\n    \"m_PreviewExpanded\": true,\n    \"m_PropertyGuidSerialized\": \"02736681-de49-4ca8-8ff8-44114b968b27\"\n}"
        },
        {
            "typeInfo": {
                "fullName": "UnityEditor.ShaderGraph.PropertyNode"
            },
            "JSONnodeData": "{\n    \"m_GuidSerialized\": \"2bb0074b-7ace-43e7-a0ff-74cb753f6d2c\",\n    \"m_Name\": \"Property\",\n    \"m_DrawState\": {\n        \"m_Expanded\": true,\n        \"m_Position\": {\n            \"serializedVersion\": \"2\",\n            \"x\": 149.04295349121095,\n            \"y\": 12.703310012817383,\n            \"width\": 123.0,\n            \"height\": 77.0\n        }\n    },\n    \"m_SerializableSlots\": [\n        {\n            \"typeInfo\": {\n                \"fullName\": \"UnityEditor.ShaderGraph.Texture2DMaterialSlot\"\n            },\n            \"JSONnodeData\": \"{\\n    \\\"m_Id\\\": 0,\\n    \\\"m_DisplayName\\\": \\\"Main Texture\\\",\\n    \\\"m_SlotType\\\": 1,\\n    \\\"m_Priority\\\": 2147483647,\\n    \\\"m_Hidden\\\": false,\\n    \\\"m_ShaderOutputName\\\": \\\"Out\\\",\\n    \\\"m_StageCapability\\\": 3\\n}\"\n        }\n    ],\n    \"m_PreviewExpanded\": true,\n    \"m_PropertyGuidSerialized\": \"b95e488e-ba6f-49d8-b119-b9205350831b\"\n}"
        },
        {
            "typeInfo": {
                "fullName": "UnityEditor.ShaderGraph.OneMinusNode"
            },
            "JSONnodeData": "{\n    \"m_GuidSerialized\": \"c48db55a-c870-4cf3-a6a0-75a7f8f73cbd\",\n    \"m_Name\": \"One Minus\",\n    \"m_DrawState\": {\n        \"m_Expanded\": true,\n        \"m_Position\": {\n            \"serializedVersion\": \"2\",\n            \"x\": -414.8077392578125,\n            \"y\": 404.68048095703127,\n            \"width\": 124.0,\n            \"height\": 94.0\n        }\n    },\n    \"m_SerializableSlots\": [\n        {\n            \"typeInfo\": {\n                \"fullName\": \"UnityEditor.ShaderGraph.DynamicVectorMaterialSlot\"\n            },\n            \"JSONnodeData\": \"{\\n    \\\"m_Id\\\": 0,\\n    \\\"m_DisplayName\\\": \\\"In\\\",\\n    \\\"m_SlotType\\\": 0,\\n    \\\"m_Priority\\\": 2147483647,\\n    \\\"m_Hidden\\\": false,\\n    \\\"m_ShaderOutputName\\\": \\\"In\\\",\\n    \\\"m_StageCapability\\\": 3,\\n    \\\"m_Value\\\": {\\n        \\\"x\\\": 1.0,\\n        \\\"y\\\": 1.0,\\n        \\\"z\\\": 1.0,\\n        \\\"w\\\": 1.0\\n    },\\n    \\\"m_DefaultValue\\\": {\\n        \\\"x\\\": 0.0,\\n        \\\"y\\\": 0.0,\\n        \\\"z\\\": 0.0,\\n        \\\"w\\\": 0.0\\n    }\\n}\"\n        },\n        {\n            \"typeInfo\": {\n                \"fullName\": \"UnityEditor.ShaderGraph.DynamicVectorMaterialSlot\"\n            },\n            \"JSONnodeData\": \"{\\n    \\\"m_Id\\\": 1,\\n    \\\"m_DisplayName\\\": \\\"Out\\\",\\n    \\\"m_SlotType\\\": 1,\\n    \\\"m_Priority\\\": 2147483647,\\n    \\\"m_Hidden\\\": false,\\n    \\\"m_ShaderOutputName\\\": \\\"Out\\\",\\n    \\\"m_StageCapability\\\": 3,\\n    \\\"m_Value\\\": {\\n        \\\"x\\\": 0.0,\\n        \\\"y\\\": 0.0,\\n        \\\"z\\\": 0.0,\\n        \\\"w\\\": 0.0\\n    },\\n    \\\"m_DefaultValue\\\": {\\n        \\\"x\\\": 0.0,\\n        \\\"y\\\": 0.0,\\n        \\\"z\\\": 0.0,\\n        \\\"w\\\": 0.0\\n    }\\n}\"\n        }\n    ],\n    \"m_PreviewExpanded\": false\n}"
        },
        {
            "typeInfo": {
                "fullName": "UnityEditor.ShaderGraph.MultiplyNode"
            },
            "JSONnodeData": "{\n    \"m_GuidSerialized\": \"d5bb24ba-a302-4cc7-afc5-fa863b41cd68\",\n    \"m_Name\": \"Multiply\",\n    \"m_DrawState\": {\n        \"m_Expanded\": true,\n        \"m_Position\": {\n            \"serializedVersion\": \"2\",\n            \"x\": -587.6063232421875,\n            \"y\": 406.7857971191406,\n            \"width\": 122.0,\n            \"height\": 118.0\n        }\n    },\n    \"m_SerializableSlots\": [\n        {\n            \"typeInfo\": {\n                \"fullName\": \"UnityEditor.ShaderGraph.DynamicValueMaterialSlot\"\n            },\n            \"JSONnodeData\": \"{\\n    \\\"m_Id\\\": 0,\\n    \\\"m_DisplayName\\\": \\\"A\\\",\\n    \\\"m_SlotType\\\": 0,\\n    \\\"m_Priority\\\": 2147483647,\\n    \\\"m_Hidden\\\": false,\\n    \\\"m_ShaderOutputName\\\": \\\"A\\\",\\n    \\\"m_StageCapability\\\": 3,\\n    \\\"m_Value\\\": {\\n        \\\"e00\\\": 0.0,\\n        \\\"e01\\\": 0.0,\\n        \\\"e02\\\": 0.0,\\n        \\\"e03\\\": 0.0,\\n        \\\"e10\\\": 0.0,\\n        \\\"e11\\\": 0.0,\\n        \\\"e12\\\": 0.0,\\n        \\\"e13\\\": 0.0,\\n        \\\"e20\\\": 0.0,\\n        \\\"e21\\\": 0.0,\\n        \\\"e22\\\": 0.0,\\n        \\\"e23\\\": 0.0,\\n        \\\"e30\\\": 0.0,\\n        \\\"e31\\\": 0.0,\\n        \\\"e32\\\": 0.0,\\n        \\\"e33\\\": 0.0\\n    },\\n    \\\"m_DefaultValue\\\": {\\n        \\\"e00\\\": 1.0,\\n        \\\"e01\\\": 0.0,\\n        \\\"e02\\\": 0.0,\\n        \\\"e03\\\": 0.0,\\n        \\\"e10\\\": 0.0,\\n        \\\"e11\\\": 1.0,\\n        \\\"e12\\\": 0.0,\\n        \\\"e13\\\": 0.0,\\n        \\\"e20\\\": 0.0,\\n        \\\"e21\\\": 0.0,\\n        \\\"e22\\\": 1.0,\\n        \\\"e23\\\": 0.0,\\n        \\\"e30\\\": 0.0,\\n        \\\"e31\\\": 0.0,\\n        \\\"e32\\\": 0.0,\\n        \\\"e33\\\": 1.0\\n    }\\n}\"\n        },\n        {\n            \"typeInfo\": {\n                \"fullName\": \"UnityEditor.ShaderGraph.DynamicValueMaterialSlot\"\n            },\n            \"JSONnodeData\": \"{\\n    \\\"m_Id\\\": 1,\\n    \\\"m_DisplayName\\\": \\\"B\\\",\\n    \\\"m_SlotType\\\": 0,\\n    \\\"m_Priority\\\": 2147483647,\\n    \\\"m_Hidden\\\": false,\\n    \\\"m_ShaderOutputName\\\": \\\"B\\\",\\n    \\\"m_StageCapability\\\": 3,\\n    \\\"m_Value\\\": {\\n        \\\"e00\\\": 2.0,\\n        \\\"e01\\\": 2.0,\\n        \\\"e02\\\": 2.0,\\n        \\\"e03\\\": 2.0,\\n        \\\"e10\\\": 2.0,\\n        \\\"e11\\\": 2.0,\\n        \\\"e12\\\": 2.0,\\n        \\\"e13\\\": 2.0,\\n        \\\"e20\\\": 2.0,\\n        \\\"e21\\\": 2.0,\\n        \\\"e22\\\": 2.0,\\n        \\\"e23\\\": 2.0,\\n        \\\"e30\\\": 2.0,\\n        \\\"e31\\\": 2.0,\\n        \\\"e32\\\": 2.0,\\n        \\\"e33\\\": 2.0\\n    },\\n    \\\"m_DefaultValue\\\": {\\n        \\\"e00\\\": 1.0,\\n        \\\"e01\\\": 0.0,\\n        \\\"e02\\\": 0.0,\\n        \\\"e03\\\": 0.0,\\n        \\\"e10\\\": 0.0,\\n        \\\"e11\\\": 1.0,\\n        \\\"e12\\\": 0.0,\\n        \\\"e13\\\": 0.0,\\n        \\\"e20\\\": 0.0,\\n        \\\"e21\\\": 0.0,\\n        \\\"e22\\\": 1.0,\\n        \\\"e23\\\": 0.0,\\n        \\\"e30\\\": 0.0,\\n        \\\"e31\\\": 0.0,\\n        \\\"e32\\\": 0.0,\\n        \\\"e33\\\": 1.0\\n    }\\n}\"\n        },\n        {\n            \"typeInfo\": {\n                \"fullName\": \"UnityEditor.ShaderGraph.DynamicValueMaterialSlot\"\n            },\n            \"JSONnodeData\": \"{\\n    \\\"m_Id\\\": 2,\\n    \\\"m_DisplayName\\\": \\\"Out\\\",\\n    \\\"m_SlotType\\\": 1,\\n    \\\"m_Priority\\\": 2147483647,\\n    \\\"m_Hidden\\\": false,\\n    \\\"m_ShaderOutputName\\\": \\\"Out\\\",\\n    \\\"m_StageCapability\\\": 3,\\n    \\\"m_Value\\\": {\\n        \\\"e00\\\": 0.0,\\n        \\\"e01\\\": 0.0,\\n        \\\"e02\\\": 0.0,\\n        \\\"e03\\\": 0.0,\\n        \\\"e10\\\": 0.0,\\n        \\\"e11\\\": 0.0,\\n        \\\"e12\\\": 0.0,\\n        \\\"e13\\\": 0.0,\\n        \\\"e20\\\": 0.0,\\n        \\\"e21\\\": 0.0,\\n        \\\"e22\\\": 0.0,\\n        \\\"e23\\\": 0.0,\\n        \\\"e30\\\": 0.0,\\n        \\\"e31\\\": 0.0,\\n        \\\"e32\\\": 0.0,\\n        \\\"e33\\\": 0.0\\n    },\\n    \\\"m_DefaultValue\\\": {\\n        \\\"e00\\\": 1.0,\\n        \\\"e01\\\": 0.0,\\n        \\\"e02\\\": 0.0,\\n        \\\"e03\\\": 0.0,\\n        \\\"e10\\\": 0.0,\\n        \\\"e11\\\": 1.0,\\n        \\\"e12\\\": 0.0,\\n        \\\"e13\\\": 0.0,\\n        \\\"e20\\\": 0.0,\\n        \\\"e21\\\": 0.0,\\n        \\\"e22\\\": 1.0,\\n        \\\"e23\\\": 0.0,\\n        \\\"e30\\\": 0.0,\\n        \\\"e31\\\": 0.0,\\n        \\\"e32\\\": 0.0,\\n        \\\"e33\\\": 1.0\\n    }\\n}\"\n        }\n    ],\n    \"m_PreviewExpanded\": false\n}"
        },
        {
            "typeInfo": {
                "fullName": "UnityEditor.ShaderGraph.MultiplyNode"
            },
            "JSONnodeData": "{\n    \"m_GuidSerialized\": \"fb01c6c8-994a-4043-9ea3-c6d325cbf734\",\n    \"m_Name\": \"Multiply\",\n    \"m_DrawState\": {\n        \"m_Expanded\": true,\n        \"m_Position\": {\n            \"serializedVersion\": \"2\",\n            \"x\": -526.6063842773438,\n            \"y\": 195.7858428955078,\n            \"width\": 122.0,\n            \"height\": 118.0\n        }\n    },\n    \"m_SerializableSlots\": [\n        {\n            \"typeInfo\": {\n                \"fullName\": \"UnityEditor.ShaderGraph.DynamicValueMaterialSlot\"\n            },\n            \"JSONnodeData\": \"{\\n    \\\"m_Id\\\": 0,\\n    \\\"m_DisplayName\\\": \\\"A\\\",\\n    \\\"m_SlotType\\\": 0,\\n    \\\"m_Priority\\\": 2147483647,\\n    \\\"m_Hidden\\\": false,\\n    \\\"m_ShaderOutputName\\\": \\\"A\\\",\\n    \\\"m_StageCapability\\\": 3,\\n    \\\"m_Value\\\": {\\n        \\\"e00\\\": 0.0,\\n        \\\"e01\\\": 0.0,\\n        \\\"e02\\\": 0.0,\\n        \\\"e03\\\": 0.0,\\n        \\\"e10\\\": 0.0,\\n        \\\"e11\\\": 0.0,\\n        \\\"e12\\\": 0.0,\\n        \\\"e13\\\": 0.0,\\n        \\\"e20\\\": 0.0,\\n        \\\"e21\\\": 0.0,\\n        \\\"e22\\\": 0.0,\\n        \\\"e23\\\": 0.0,\\n        \\\"e30\\\": 0.0,\\n        \\\"e31\\\": 0.0,\\n        \\\"e32\\\": 0.0,\\n        \\\"e33\\\": 0.0\\n    },\\n    \\\"m_DefaultValue\\\": {\\n        \\\"e00\\\": 1.0,\\n        \\\"e01\\\": 0.0,\\n        \\\"e02\\\": 0.0,\\n        \\\"e03\\\": 0.0,\\n        \\\"e10\\\": 0.0,\\n        \\\"e11\\\": 1.0,\\n        \\\"e12\\\": 0.0,\\n        \\\"e13\\\": 0.0,\\n        \\\"e20\\\": 0.0,\\n        \\\"e21\\\": 0.0,\\n        \\\"e22\\\": 1.0,\\n        \\\"e23\\\": 0.0,\\n        \\\"e30\\\": 0.0,\\n        \\\"e31\\\": 0.0,\\n        \\\"e32\\\": 0.0,\\n        \\\"e33\\\": 1.0\\n    }\\n}\"\n        },\n        {\n            \"typeInfo\": {\n                \"fullName\": \"UnityEditor.ShaderGraph.DynamicValueMaterialSlot\"\n            },\n            \"JSONnodeData\": \"{\\n    \\\"m_Id\\\": 1,\\n    \\\"m_DisplayName\\\": \\\"B\\\",\\n    \\\"m_SlotType\\\": 0,\\n    \\\"m_Priority\\\": 2147483647,\\n    \\\"m_Hidden\\\": false,\\n    \\\"m_ShaderOutputName\\\": \\\"B\\\",\\n    \\\"m_StageCapability\\\": 3,\\n    \\\"m_Value\\\": {\\n        \\\"e00\\\": 2.0,\\n        \\\"e01\\\": 2.0,\\n        \\\"e02\\\": 2.0,\\n        \\\"e03\\\": 2.0,\\n        \\\"e10\\\": 2.0,\\n        \\\"e11\\\": 2.0,\\n        \\\"e12\\\": 2.0,\\n        \\\"e13\\\": 2.0,\\n        \\\"e20\\\": 2.0,\\n        \\\"e21\\\": 2.0,\\n        \\\"e22\\\": 2.0,\\n        \\\"e23\\\": 2.0,\\n        \\\"e30\\\": 2.0,\\n        \\\"e31\\\": 2.0,\\n        \\\"e32\\\": 2.0,\\n        \\\"e33\\\": 2.0\\n    },\\n    \\\"m_DefaultValue\\\": {\\n        \\\"e00\\\": 1.0,\\n        \\\"e01\\\": 0.0,\\n        \\\"e02\\\": 0.0,\\n        \\\"e03\\\": 0.0,\\n        \\\"e10\\\": 0.0,\\n        \\\"e11\\\": 1.0,\\n        \\\"e12\\\": 0.0,\\n        \\\"e13\\\": 0.0,\\n        \\\"e20\\\": 0.0,\\n        \\\"e21\\\": 0.0,\\n        \\\"e22\\\": 1.0,\\n        \\\"e23\\\": 0.0,\\n        \\\"e30\\\": 0.0,\\n        \\\"e31\\\": 0.0,\\n        \\\"e32\\\": 0.0,\\n        \\\"e33\\\": 1.0\\n    }\\n}\"\n        },\n        {\n            \"typeInfo\": {\n                \"fullName\": \"UnityEditor.ShaderGraph.DynamicValueMaterialSlot\"\n            },\n            \"JSONnodeData\": \"{\\n    \\\"m_Id\\\": 2,\\n    \\\"m_DisplayName\\\": \\\"Out\\\",\\n    \\\"m_SlotType\\\": 1,\\n    \\\"m_Priority\\\": 2147483647,\\n    \\\"m_Hidden\\\": false,\\n    \\\"m_ShaderOutputName\\\": \\\"Out\\\",\\n    \\\"m_StageCapability\\\": 3,\\n    \\\"m_Value\\\": {\\n        \\\"e00\\\": 0.0,\\n        \\\"e01\\\": 0.0,\\n        \\\"e02\\\": 0.0,\\n        \\\"e03\\\": 0.0,\\n        \\\"e10\\\": 0.0,\\n        \\\"e11\\\": 0.0,\\n        \\\"e12\\\": 0.0,\\n        \\\"e13\\\": 0.0,\\n        \\\"e20\\\": 0.0,\\n        \\\"e21\\\": 0.0,\\n        \\\"e22\\\": 0.0,\\n        \\\"e23\\\": 0.0,\\n        \\\"e30\\\": 0.0,\\n        \\\"e31\\\": 0.0,\\n        \\\"e32\\\": 0.0,\\n        \\\"e33\\\": 0.0\\n    },\\n    \\\"m_DefaultValue\\\": {\\n        \\\"e00\\\": 1.0,\\n        \\\"e01\\\": 0.0,\\n        \\\"e02\\\": 0.0,\\n        \\\"e03\\\": 0.0,\\n        \\\"e10\\\": 0.0,\\n        \\\"e11\\\": 1.0,\\n        \\\"e12\\\": 0.0,\\n        \\\"e13\\\": 0.0,\\n        \\\"e20\\\": 0.0,\\n        \\\"e21\\\": 0.0,\\n        \\\"e22\\\": 1.0,\\n        \\\"e23\\\": 0.0,\\n        \\\"e30\\\": 0.0,\\n        \\\"e31\\\": 0.0,\\n        \\\"e32\\\": 0.0,\\n        \\\"e33\\\": 1.0\\n    }\\n}\"\n        }\n    ],\n    \"m_PreviewExpanded\": false\n}"
        },
        {
            "typeInfo": {
                "fullName": "UnityEditor.ShaderGraph.VertexColorNode"
            },
            "JSONnodeData": "{\n    \"m_GuidSerialized\": \"154636aa-ea56-4e3a-a91e-e973203ddf46\",\n    \"m_Name\": \"Vertex Color\",\n    \"m_DrawState\": {\n        \"m_Expanded\": true,\n        \"m_Position\": {\n            \"serializedVersion\": \"2\",\n            \"x\": 312.0350646972656,\n            \"y\": -177.34646606445313,\n            \"width\": 110.0,\n            \"height\": 94.0\n        }\n    },\n    \"m_SerializableSlots\": [\n        {\n            \"typeInfo\": {\n                \"fullName\": \"UnityEditor.ShaderGraph.Vector4MaterialSlot\"\n            },\n            \"JSONnodeData\": \"{\\n    \\\"m_Id\\\": 0,\\n    \\\"m_DisplayName\\\": \\\"Out\\\",\\n    \\\"m_SlotType\\\": 1,\\n    \\\"m_Priority\\\": 2147483647,\\n    \\\"m_Hidden\\\": false,\\n    \\\"m_ShaderOutputName\\\": \\\"Out\\\",\\n    \\\"m_StageCapability\\\": 3,\\n    \\\"m_Value\\\": {\\n        \\\"x\\\": 1.0,\\n        \\\"y\\\": 1.0,\\n        \\\"z\\\": 1.0,\\n        \\\"w\\\": 1.0\\n    },\\n    \\\"m_DefaultValue\\\": {\\n        \\\"x\\\": 0.0,\\n        \\\"y\\\": 0.0,\\n        \\\"z\\\": 0.0,\\n        \\\"w\\\": 0.0\\n    }\\n}\"\n        }\n    ],\n    \"m_PreviewExpanded\": false\n}"
        },
        {
            "typeInfo": {
                "fullName": "UnityEditor.ShaderGraph.SplitNode"
            },
            "JSONnodeData": "{\n    \"m_GuidSerialized\": \"e8aaf43d-d84e-4395-a461-07caff02a685\",\n    \"m_Name\": \"Split\",\n    \"m_DrawState\": {\n        \"m_Expanded\": true,\n        \"m_Position\": {\n            \"serializedVersion\": \"2\",\n            \"x\": -818.6064453125,\n            \"y\": 376.7857666015625,\n            \"width\": 114.0,\n            \"height\": 149.0\n        }\n    },\n    \"m_SerializableSlots\": [\n        {\n            \"typeInfo\": {\n                \"fullName\": \"UnityEditor.ShaderGraph.DynamicVectorMaterialSlot\"\n            },\n            \"JSONnodeData\": \"{\\n    \\\"m_Id\\\": 0,\\n    \\\"m_DisplayName\\\": \\\"In\\\",\\n    \\\"m_SlotType\\\": 0,\\n    \\\"m_Priority\\\": 2147483647,\\n    \\\"m_Hidden\\\": false,\\n    \\\"m_ShaderOutputName\\\": \\\"In\\\",\\n    \\\"m_StageCapability\\\": 3,\\n    \\\"m_Value\\\": {\\n        \\\"x\\\": 0.0,\\n        \\\"y\\\": 0.0,\\n        \\\"z\\\": 0.0,\\n        \\\"w\\\": 0.0\\n    },\\n    \\\"m_DefaultValue\\\": {\\n        \\\"x\\\": 0.0,\\n        \\\"y\\\": 0.0,\\n        \\\"z\\\": 0.0,\\n        \\\"w\\\": 0.0\\n    }\\n}\"\n        },\n        {\n            \"typeInfo\": {\n                \"fullName\": \"UnityEditor.ShaderGraph.Vector1MaterialSlot\"\n            },\n            \"JSONnodeData\": \"{\\n    \\\"m_Id\\\": 1,\\n    \\\"m_DisplayName\\\": \\\"R\\\",\\n    \\\"m_SlotType\\\": 1,\\n    \\\"m_Priority\\\": 2147483647,\\n    \\\"m_Hidden\\\": false,\\n    \\\"m_ShaderOutputName\\\": \\\"R\\\",\\n    \\\"m_StageCapability\\\": 3,\\n    \\\"m_Value\\\": 0.0,\\n    \\\"m_DefaultValue\\\": 0.0,\\n    \\\"m_Labels\\\": [\\n        \\\"X\\\"\\n    ]\\n}\"\n        },\n        {\n            \"typeInfo\": {\n                \"fullName\": \"UnityEditor.ShaderGraph.Vector1MaterialSlot\"\n            },\n            \"JSONnodeData\": \"{\\n    \\\"m_Id\\\": 2,\\n    \\\"m_DisplayName\\\": \\\"G\\\",\\n    \\\"m_SlotType\\\": 1,\\n    \\\"m_Priority\\\": 2147483647,\\n    \\\"m_Hidden\\\": false,\\n    \\\"m_ShaderOutputName\\\": \\\"G\\\",\\n    \\\"m_StageCapability\\\": 3,\\n    \\\"m_Value\\\": 0.0,\\n    \\\"m_DefaultValue\\\": 0.0,\\n    \\\"m_Labels\\\": [\\n        \\\"X\\\"\\n    ]\\n}\"\n        },\n        {\n            \"typeInfo\": {\n                \"fullName\": \"UnityEditor.ShaderGraph.Vector1MaterialSlot\"\n            },\n            \"JSONnodeData\": \"{\\n    \\\"m_Id\\\": 3,\\n    \\\"m_DisplayName\\\": \\\"B\\\",\\n    \\\"m_SlotType\\\": 1,\\n    \\\"m_Priority\\\": 2147483647,\\n    \\\"m_Hidden\\\": false,\\n    \\\"m_ShaderOutputName\\\": \\\"B\\\",\\n    \\\"m_StageCapability\\\": 3,\\n    \\\"m_Value\\\": 0.0,\\n    \\\"m_DefaultValue\\\": 0.0,\\n    \\\"m_Labels\\\": [\\n        \\\"X\\\"\\n    ]\\n}\"\n        },\n        {\n            \"typeInfo\": {\n                \"fullName\": \"UnityEditor.ShaderGraph.Vector1MaterialSlot\"\n            },\n            \"JSONnodeData\": \"{\\n    \\\"m_Id\\\": 4,\\n    \\\"m_DisplayName\\\": \\\"A\\\",\\n    \\\"m_SlotType\\\": 1,\\n    \\\"m_Priority\\\": 2147483647,\\n    \\\"m_Hidden\\\": false,\\n    \\\"m_ShaderOutputName\\\": \\\"A\\\",\\n    \\\"m_StageCapability\\\": 3,\\n    \\\"m_Value\\\": 0.0,\\n    \\\"m_DefaultValue\\\": 0.0,\\n    \\\"m_Labels\\\": [\\n        \\\"X\\\"\\n    ]\\n}\"\n        }\n    ],\n    \"m_PreviewExpanded\": true\n}"
        },
        {
            "typeInfo": {
                "fullName": "UnityEditor.ShaderGraph.TimeNode"
            },
            "JSONnodeData": "{\n    \"m_GuidSerialized\": \"79fee3c6-957e-47cd-a0a8-dea29a687e6c\",\n    \"m_Name\": \"Time\",\n    \"m_DrawState\": {\n        \"m_Expanded\": true,\n        \"m_Position\": {\n            \"serializedVersion\": \"2\",\n            \"x\": -754.6063232421875,\n            \"y\": 56.78580093383789,\n            \"width\": 119.0,\n            \"height\": 173.0\n        }\n    },\n    \"m_SerializableSlots\": [\n        {\n            \"typeInfo\": {\n                \"fullName\": \"UnityEditor.ShaderGraph.Vector1MaterialSlot\"\n            },\n            \"JSONnodeData\": \"{\\n    \\\"m_Id\\\": 0,\\n    \\\"m_DisplayName\\\": \\\"Time\\\",\\n    \\\"m_SlotType\\\": 1,\\n    \\\"m_Priority\\\": 2147483647,\\n    \\\"m_Hidden\\\": false,\\n    \\\"m_ShaderOutputName\\\": \\\"Time\\\",\\n    \\\"m_StageCapability\\\": 3,\\n    \\\"m_Value\\\": 0.0,\\n    \\\"m_DefaultValue\\\": 0.0,\\n    \\\"m_Labels\\\": [\\n        \\\"X\\\"\\n    ]\\n}\"\n        },\n        {\n            \"typeInfo\": {\n                \"fullName\": \"UnityEditor.ShaderGraph.Vector1MaterialSlot\"\n            },\n            \"JSONnodeData\": \"{\\n    \\\"m_Id\\\": 1,\\n    \\\"m_DisplayName\\\": \\\"Sine Time\\\",\\n    \\\"m_SlotType\\\": 1,\\n    \\\"m_Priority\\\": 2147483647,\\n    \\\"m_Hidden\\\": false,\\n    \\\"m_ShaderOutputName\\\": \\\"Sine Time\\\",\\n    \\\"m_StageCapability\\\": 3,\\n    \\\"m_Value\\\": 0.0,\\n    \\\"m_DefaultValue\\\": 0.0,\\n    \\\"m_Labels\\\": [\\n        \\\"X\\\"\\n    ]\\n}\"\n        },\n        {\n            \"typeInfo\": {\n                \"fullName\": \"UnityEditor.ShaderGraph.Vector1MaterialSlot\"\n            },\n            \"JSONnodeData\": \"{\\n    \\\"m_Id\\\": 2,\\n    \\\"m_DisplayName\\\": \\\"Cosine Time\\\",\\n    \\\"m_SlotType\\\": 1,\\n    \\\"m_Priority\\\": 2147483647,\\n    \\\"m_Hidden\\\": false,\\n    \\\"m_ShaderOutputName\\\": \\\"Cosine Time\\\",\\n    \\\"m_StageCapability\\\": 3,\\n    \\\"m_Value\\\": 0.0,\\n    \\\"m_DefaultValue\\\": 0.0,\\n    \\\"m_Labels\\\": [\\n        \\\"X\\\"\\n    ]\\n}\"\n        },\n        {\n            \"typeInfo\": {\n                \"fullName\": \"UnityEditor.ShaderGraph.Vector1MaterialSlot\"\n            },\n            \"JSONnodeData\": \"{\\n    \\\"m_Id\\\": 3,\\n    \\\"m_DisplayName\\\": \\\"Delta Time\\\",\\n    \\\"m_SlotType\\\": 1,\\n    \\\"m_Priority\\\": 2147483647,\\n    \\\"m_Hidden\\\": false,\\n    \\\"m_ShaderOutputName\\\": \\\"Delta Time\\\",\\n    \\\"m_StageCapability\\\": 3,\\n    \\\"m_Value\\\": 0.0,\\n    \\\"m_DefaultValue\\\": 0.0,\\n    \\\"m_Labels\\\": [\\n        \\\"X\\\"\\n    ]\\n}\"\n        },\n        {\n            \"typeInfo\": {\n                \"fullName\": \"UnityEditor.ShaderGraph.Vector1MaterialSlot\"\n            },\n            \"JSONnodeData\": \"{\\n    \\\"m_Id\\\": 4,\\n    \\\"m_DisplayName\\\": \\\"Smooth Delta\\\",\\n    \\\"m_SlotType\\\": 1,\\n    \\\"m_Priority\\\": 2147483647,\\n    \\\"m_Hidden\\\": false,\\n    \\\"m_ShaderOutputName\\\": \\\"Smooth Delta\\\",\\n    \\\"m_StageCapability\\\": 3,\\n    \\\"m_Value\\\": 0.0,\\n    \\\"m_DefaultValue\\\": 0.0,\\n    \\\"m_Labels\\\": [\\n        \\\"X\\\"\\n    ]\\n}\"\n        }\n    ],\n    \"m_PreviewExpanded\": true\n}"
        },
        {
            "typeInfo": {
                "fullName": "UnityEditor.ShaderGraph.CombineNode"
            },
            "JSONnodeData": "{\n    \"m_GuidSerialized\": \"22814a8f-bca7-4611-b0f4-d02462431a5b\",\n    \"m_Name\": \"Combine\",\n    \"m_DrawState\": {\n        \"m_Expanded\": true,\n        \"m_Position\": {\n            \"serializedVersion\": \"2\",\n            \"x\": -175.78890991210938,\n            \"y\": 374.93585205078127,\n            \"width\": 133.0,\n            \"height\": 166.0\n        }\n    },\n    \"m_SerializableSlots\": [\n        {\n            \"typeInfo\": {\n                \"fullName\": \"UnityEditor.ShaderGraph.Vector1MaterialSlot\"\n            },\n            \"JSONnodeData\": \"{\\n    \\\"m_Id\\\": 0,\\n    \\\"m_DisplayName\\\": \\\"R\\\",\\n    \\\"m_SlotType\\\": 0,\\n    \\\"m_Priority\\\": 2147483647,\\n    \\\"m_Hidden\\\": false,\\n    \\\"m_ShaderOutputName\\\": \\\"R\\\",\\n    \\\"m_StageCapability\\\": 3,\\n    \\\"m_Value\\\": 0.0,\\n    \\\"m_DefaultValue\\\": 0.0,\\n    \\\"m_Labels\\\": [\\n        \\\"X\\\"\\n    ]\\n}\"\n        },\n        {\n            \"typeInfo\": {\n                \"fullName\": \"UnityEditor.ShaderGraph.Vector1MaterialSlot\"\n            },\n            \"JSONnodeData\": \"{\\n    \\\"m_Id\\\": 1,\\n    \\\"m_DisplayName\\\": \\\"G\\\",\\n    \\\"m_SlotType\\\": 0,\\n    \\\"m_Priority\\\": 2147483647,\\n    \\\"m_Hidden\\\": false,\\n    \\\"m_ShaderOutputName\\\": \\\"G\\\",\\n    \\\"m_StageCapability\\\": 3,\\n    \\\"m_Value\\\": 0.0,\\n    \\\"m_DefaultValue\\\": 0.0,\\n    \\\"m_Labels\\\": [\\n        \\\"X\\\"\\n    ]\\n}\"\n        },\n        {\n            \"typeInfo\": {\n                \"fullName\": \"UnityEditor.ShaderGraph.Vector1MaterialSlot\"\n            },\n            \"JSONnodeData\": \"{\\n    \\\"m_Id\\\": 2,\\n    \\\"m_DisplayName\\\": \\\"B\\\",\\n    \\\"m_SlotType\\\": 0,\\n    \\\"m_Priority\\\": 2147483647,\\n    \\\"m_Hidden\\\": false,\\n    \\\"m_ShaderOutputName\\\": \\\"B\\\",\\n    \\\"m_StageCapability\\\": 3,\\n    \\\"m_Value\\\": 0.0,\\n    \\\"m_DefaultValue\\\": 0.0,\\n    \\\"m_Labels\\\": [\\n        \\\"X\\\"\\n    ]\\n}\"\n        },\n        {\n            \"typeInfo\": {\n                \"fullName\": \"UnityEditor.ShaderGraph.Vector1MaterialSlot\"\n            },\n            \"JSONnodeData\": \"{\\n    \\\"m_Id\\\": 3,\\n    \\\"m_DisplayName\\\": \\\"A\\\",\\n    \\\"m_SlotType\\\": 0,\\n    \\\"m_Priority\\\": 2147483647,\\n    \\\"m_Hidden\\\": false,\\n    \\\"m_ShaderOutputName\\\": \\\"A\\\",\\n    \\\"m_StageCapability\\\": 3,\\n    \\\"m_Value\\\": 0.0,\\n    \\\"m_DefaultValue\\\": 0.0,\\n    \\\"m_Labels\\\": [\\n        \\\"X\\\"\\n    ]\\n}\"\n        },\n        {\n            \"typeInfo\": {\n                \"fullName\": \"UnityEditor.ShaderGraph.Vector4MaterialSlot\"\n            },\n            \"JSONnodeData\": \"{\\n    \\\"m_Id\\\": 4,\\n    \\\"m_DisplayName\\\": \\\"RGBA\\\",\\n    \\\"m_SlotType\\\": 1,\\n    \\\"m_Priority\\\": 2147483647,\\n    \\\"m_Hidden\\\": false,\\n    \\\"m_ShaderOutputName\\\": \\\"RGBA\\\",\\n    \\\"m_StageCapability\\\": 3,\\n    \\\"m_Value\\\": {\\n        \\\"x\\\": 0.0,\\n        \\\"y\\\": 0.0,\\n        \\\"z\\\": 0.0,\\n        \\\"w\\\": 0.0\\n    },\\n    \\\"m_DefaultValue\\\": {\\n        \\\"x\\\": 0.0,\\n        \\\"y\\\": 0.0,\\n        \\\"z\\\": 0.0,\\n        \\\"w\\\": 0.0\\n    }\\n}\"\n        },\n        {\n            \"typeInfo\": {\n                \"fullName\": \"UnityEditor.ShaderGraph.Vector3MaterialSlot\"\n            },\n            \"JSONnodeData\": \"{\\n    \\\"m_Id\\\": 5,\\n    \\\"m_DisplayName\\\": \\\"RGB\\\",\\n    \\\"m_SlotType\\\": 1,\\n    \\\"m_Priority\\\": 2147483647,\\n    \\\"m_Hidden\\\": false,\\n    \\\"m_ShaderOutputName\\\": \\\"RGB\\\",\\n    \\\"m_StageCapability\\\": 3,\\n    \\\"m_Value\\\": {\\n        \\\"x\\\": 0.0,\\n        \\\"y\\\": 0.0,\\n        \\\"z\\\": 0.0\\n    },\\n    \\\"m_DefaultValue\\\": {\\n        \\\"x\\\": 0.0,\\n        \\\"y\\\": 0.0,\\n        \\\"z\\\": 0.0\\n    },\\n    \\\"m_Labels\\\": [\\n        \\\"X\\\",\\n        \\\"Y\\\",\\n        \\\"Z\\\"\\n    ]\\n}\"\n        },\n        {\n            \"typeInfo\": {\n                \"fullName\": \"UnityEditor.ShaderGraph.Vector2MaterialSlot\"\n            },\n            \"JSONnodeData\": \"{\\n    \\\"m_Id\\\": 6,\\n    \\\"m_DisplayName\\\": \\\"RG\\\",\\n    \\\"m_SlotType\\\": 1,\\n    \\\"m_Priority\\\": 2147483647,\\n    \\\"m_Hidden\\\": false,\\n    \\\"m_ShaderOutputName\\\": \\\"RG\\\",\\n    \\\"m_StageCapability\\\": 3,\\n    \\\"m_Value\\\": {\\n        \\\"x\\\": 0.0,\\n        \\\"y\\\": 0.0\\n    },\\n    \\\"m_DefaultValue\\\": {\\n        \\\"x\\\": 0.0,\\n        \\\"y\\\": 0.0\\n    },\\n    \\\"m_Labels\\\": [\\n        \\\"X\\\",\\n        \\\"Y\\\"\\n    ]\\n}\"\n        }\n    ],\n    \"m_PreviewExpanded\": false\n}"
        },
        {
            "typeInfo": {
                "fullName": "UnityEditor.ShaderGraph.PropertyNode"
            },
            "JSONnodeData": "{\n    \"m_GuidSerialized\": \"6707e2a2-a5da-4748-ae3a-a315433e5a4b\",\n    \"m_Name\": \"Property\",\n    \"m_DrawState\": {\n        \"m_Expanded\": true,\n        \"m_Position\": {\n            \"serializedVersion\": \"2\",\n            \"x\": -1001.6063232421875,\n            \"y\": 378.7857666015625,\n            \"width\": 140.0,\n            \"height\": 77.0\n        }\n    },\n    \"m_SerializableSlots\": [\n        {\n            \"typeInfo\": {\n                \"fullName\": \"UnityEditor.ShaderGraph.Vector2MaterialSlot\"\n            },\n            \"JSONnodeData\": \"{\\n    \\\"m_Id\\\": 0,\\n    \\\"m_DisplayName\\\": \\\"Main Scroll Speed\\\",\\n    \\\"m_SlotType\\\": 1,\\n    \\\"m_Priority\\\": 2147483647,\\n    \\\"m_Hidden\\\": false,\\n    \\\"m_ShaderOutputName\\\": \\\"Out\\\",\\n    \\\"m_StageCapability\\\": 3,\\n    \\\"m_Value\\\": {\\n        \\\"x\\\": 0.0,\\n        \\\"y\\\": 0.0\\n    },\\n    \\\"m_DefaultValue\\\": {\\n        \\\"x\\\": 0.0,\\n        \\\"y\\\": 0.0\\n    },\\n    \\\"m_Labels\\\": [\\n        \\\"X\\\",\\n        \\\"Y\\\"\\n    ]\\n}\"\n        }\n    ],\n    \"m_PreviewExpanded\": true,\n    \"m_PropertyGuidSerialized\": \"bffafd67-ffa9-4fdd-849f-8a01ef2836ee\"\n}"
        },
        {
            "typeInfo": {
                "fullName": "UnityEditor.ShaderGraph.TilingAndOffsetNode"
            },
            "JSONnodeData": "{\n    \"m_GuidSerialized\": \"07ae5453-f887-4615-9613-a2cdfa912ccd\",\n    \"m_Name\": \"Tiling And Offset\",\n    \"m_DrawState\": {\n        \"m_Expanded\": true,\n        \"m_Position\": {\n            \"serializedVersion\": \"2\",\n            \"x\": 27.211166381835939,\n            \"y\": 165.93572998046876,\n            \"width\": 144.0,\n            \"height\": 142.0\n        }\n    },\n    \"m_SerializableSlots\": [\n        {\n            \"typeInfo\": {\n                \"fullName\": \"UnityEditor.ShaderGraph.UVMaterialSlot\"\n            },\n            \"JSONnodeData\": \"{\\n    \\\"m_Id\\\": 0,\\n    \\\"m_DisplayName\\\": \\\"UV\\\",\\n    \\\"m_SlotType\\\": 0,\\n    \\\"m_Priority\\\": 2147483647,\\n    \\\"m_Hidden\\\": false,\\n    \\\"m_ShaderOutputName\\\": \\\"UV\\\",\\n    \\\"m_StageCapability\\\": 3,\\n    \\\"m_Value\\\": {\\n        \\\"x\\\": 0.0,\\n        \\\"y\\\": 0.0\\n    },\\n    \\\"m_DefaultValue\\\": {\\n        \\\"x\\\": 0.0,\\n        \\\"y\\\": 0.0\\n    },\\n    \\\"m_Labels\\\": [\\n        \\\"X\\\",\\n        \\\"Y\\\"\\n    ],\\n    \\\"m_Channel\\\": 0\\n}\"\n        },\n        {\n            \"typeInfo\": {\n                \"fullName\": \"UnityEditor.ShaderGraph.Vector2MaterialSlot\"\n            },\n            \"JSONnodeData\": \"{\\n    \\\"m_Id\\\": 1,\\n    \\\"m_DisplayName\\\": \\\"Tiling\\\",\\n    \\\"m_SlotType\\\": 0,\\n    \\\"m_Priority\\\": 2147483647,\\n    \\\"m_Hidden\\\": false,\\n    \\\"m_ShaderOutputName\\\": \\\"Tiling\\\",\\n    \\\"m_StageCapability\\\": 3,\\n    \\\"m_Value\\\": {\\n        \\\"x\\\": 1.0,\\n        \\\"y\\\": 1.0\\n    },\\n    \\\"m_DefaultValue\\\": {\\n        \\\"x\\\": 0.0,\\n        \\\"y\\\": 0.0\\n    },\\n    \\\"m_Labels\\\": [\\n        \\\"X\\\",\\n        \\\"Y\\\"\\n    ]\\n}\"\n        },\n        {\n            \"typeInfo\": {\n                \"fullName\": \"UnityEditor.ShaderGraph.Vector2MaterialSlot\"\n            },\n            \"JSONnodeData\": \"{\\n    \\\"m_Id\\\": 2,\\n    \\\"m_DisplayName\\\": \\\"Offset\\\",\\n    \\\"m_SlotType\\\": 0,\\n    \\\"m_Priority\\\": 2147483647,\\n    \\\"m_Hidden\\\": false,\\n    \\\"m_ShaderOutputName\\\": \\\"Offset\\\",\\n    \\\"m_StageCapability\\\": 3,\\n    \\\"m_Value\\\": {\\n        \\\"x\\\": 0.0,\\n        \\\"y\\\": 0.0\\n    },\\n    \\\"m_DefaultValue\\\": {\\n        \\\"x\\\": 0.0,\\n        \\\"y\\\": 0.0\\n    },\\n    \\\"m_Labels\\\": [\\n        \\\"X\\\",\\n        \\\"Y\\\"\\n    ]\\n}\"\n        },\n        {\n            \"typeInfo\": {\n                \"fullName\": \"UnityEditor.ShaderGraph.Vector2MaterialSlot\"\n            },\n            \"JSONnodeData\": \"{\\n    \\\"m_Id\\\": 3,\\n    \\\"m_DisplayName\\\": \\\"Out\\\",\\n    \\\"m_SlotType\\\": 1,\\n    \\\"m_Priority\\\": 2147483647,\\n    \\\"m_Hidden\\\": false,\\n    \\\"m_ShaderOutputName\\\": \\\"Out\\\",\\n    \\\"m_StageCapability\\\": 3,\\n    \\\"m_Value\\\": {\\n        \\\"x\\\": 0.0,\\n        \\\"y\\\": 0.0\\n    },\\n    \\\"m_DefaultValue\\\": {\\n        \\\"x\\\": 0.0,\\n        \\\"y\\\": 0.0\\n    },\\n    \\\"m_Labels\\\": [\\n        \\\"X\\\",\\n        \\\"Y\\\"\\n    ]\\n}\"\n        }\n    ],\n    \"m_PreviewExpanded\": false\n}"
        },
        {
            "typeInfo": {
                "fullName": "UnityEditor.ShaderGraph.SampleTexture2DNode"
            },
            "JSONnodeData": "{\n    \"m_GuidSerialized\": \"16bfab58-0ccd-4710-9574-5ccaf850c46c\",\n    \"m_Name\": \"Sample Texture 2D\",\n    \"m_DrawState\": {\n        \"m_Expanded\": true,\n        \"m_Position\": {\n            \"serializedVersion\": \"2\",\n            \"x\": 424.8962707519531,\n            \"y\": 23.1868896484375,\n            \"width\": 208.0,\n            \"height\": 431.0\n        }\n    },\n    \"m_SerializableSlots\": [\n        {\n            \"typeInfo\": {\n                \"fullName\": \"UnityEditor.ShaderGraph.Vector4MaterialSlot\"\n            },\n            \"JSONnodeData\": \"{\\n    \\\"m_Id\\\": 0,\\n    \\\"m_DisplayName\\\": \\\"RGBA\\\",\\n    \\\"m_SlotType\\\": 1,\\n    \\\"m_Priority\\\": 2147483647,\\n    \\\"m_Hidden\\\": false,\\n    \\\"m_ShaderOutputName\\\": \\\"RGBA\\\",\\n    \\\"m_StageCapability\\\": 2,\\n    \\\"m_Value\\\": {\\n        \\\"x\\\": 0.0,\\n        \\\"y\\\": 0.0,\\n        \\\"z\\\": 0.0,\\n        \\\"w\\\": 0.0\\n    },\\n    \\\"m_DefaultValue\\\": {\\n        \\\"x\\\": 0.0,\\n        \\\"y\\\": 0.0,\\n        \\\"z\\\": 0.0,\\n        \\\"w\\\": 0.0\\n    }\\n}\"\n        },\n        {\n            \"typeInfo\": {\n                \"fullName\": \"UnityEditor.ShaderGraph.Vector1MaterialSlot\"\n            },\n            \"JSONnodeData\": \"{\\n    \\\"m_Id\\\": 4,\\n    \\\"m_DisplayName\\\": \\\"R\\\",\\n    \\\"m_SlotType\\\": 1,\\n    \\\"m_Priority\\\": 2147483647,\\n    \\\"m_Hidden\\\": false,\\n    \\\"m_ShaderOutputName\\\": \\\"R\\\",\\n    \\\"m_StageCapability\\\": 2,\\n    \\\"m_Value\\\": 0.0,\\n    \\\"m_DefaultValue\\\": 0.0,\\n    \\\"m_Labels\\\": [\\n        \\\"X\\\"\\n    ]\\n}\"\n        },\n        {\n            \"typeInfo\": {\n                \"fullName\": \"UnityEditor.ShaderGraph.Vector1MaterialSlot\"\n            },\n            \"JSONnodeData\": \"{\\n    \\\"m_Id\\\": 5,\\n    \\\"m_DisplayName\\\": \\\"G\\\",\\n    \\\"m_SlotType\\\": 1,\\n    \\\"m_Priority\\\": 2147483647,\\n    \\\"m_Hidden\\\": false,\\n    \\\"m_ShaderOutputName\\\": \\\"G\\\",\\n    \\\"m_StageCapability\\\": 2,\\n    \\\"m_Value\\\": 0.0,\\n    \\\"m_DefaultValue\\\": 0.0,\\n    \\\"m_Labels\\\": [\\n        \\\"X\\\"\\n    ]\\n}\"\n        },\n        {\n            \"typeInfo\": {\n                \"fullName\": \"UnityEditor.ShaderGraph.Vector1MaterialSlot\"\n            },\n            \"JSONnodeData\": \"{\\n    \\\"m_Id\\\": 6,\\n    \\\"m_DisplayName\\\": \\\"B\\\",\\n    \\\"m_SlotType\\\": 1,\\n    \\\"m_Priority\\\": 2147483647,\\n    \\\"m_Hidden\\\": false,\\n    \\\"m_ShaderOutputName\\\": \\\"B\\\",\\n    \\\"m_StageCapability\\\": 2,\\n    \\\"m_Value\\\": 0.0,\\n    \\\"m_DefaultValue\\\": 0.0,\\n    \\\"m_Labels\\\": [\\n        \\\"X\\\"\\n    ]\\n}\"\n        },\n        {\n            \"typeInfo\": {\n                \"fullName\": \"UnityEditor.ShaderGraph.Vector1MaterialSlot\"\n            },\n            \"JSONnodeData\": \"{\\n    \\\"m_Id\\\": 7,\\n    \\\"m_DisplayName\\\": \\\"A\\\",\\n    \\\"m_SlotType\\\": 1,\\n    \\\"m_Priority\\\": 2147483647,\\n    \\\"m_Hidden\\\": false,\\n    \\\"m_ShaderOutputName\\\": \\\"A\\\",\\n    \\\"m_StageCapability\\\": 2,\\n    \\\"m_Value\\\": 0.0,\\n    \\\"m_DefaultValue\\\": 0.0,\\n    \\\"m_Labels\\\": [\\n        \\\"X\\\"\\n    ]\\n}\"\n        },\n        {\n            \"typeInfo\": {\n                \"fullName\": \"UnityEditor.ShaderGraph.Texture2DInputMaterialSlot\"\n            },\n            \"JSONnodeData\": \"{\\n    \\\"m_Id\\\": 1,\\n    \\\"m_DisplayName\\\": \\\"Texture\\\",\\n    \\\"m_SlotType\\\": 0,\\n    \\\"m_Priority\\\": 2147483647,\\n    \\\"m_Hidden\\\": false,\\n    \\\"m_ShaderOutputName\\\": \\\"Texture\\\",\\n    \\\"m_StageCapability\\\": 3,\\n    \\\"m_Texture\\\": {\\n        \\\"m_SerializedTexture\\\": \\\"\\\",\\n        \\\"m_Guid\\\": \\\"8932eb5cab93d3142affa88568dd9953\\\"\\n    },\\n    \\\"m_DefaultType\\\": 0\\n}\"\n        },\n        {\n            \"typeInfo\": {\n                \"fullName\": \"UnityEditor.ShaderGraph.UVMaterialSlot\"\n            },\n            \"JSONnodeData\": \"{\\n    \\\"m_Id\\\": 2,\\n    \\\"m_DisplayName\\\": \\\"UV\\\",\\n    \\\"m_SlotType\\\": 0,\\n    \\\"m_Priority\\\": 2147483647,\\n    \\\"m_Hidden\\\": false,\\n    \\\"m_ShaderOutputName\\\": \\\"UV\\\",\\n    \\\"m_StageCapability\\\": 3,\\n    \\\"m_Value\\\": {\\n        \\\"x\\\": 0.0,\\n        \\\"y\\\": 0.0\\n    },\\n    \\\"m_DefaultValue\\\": {\\n        \\\"x\\\": 0.0,\\n        \\\"y\\\": 0.0\\n    },\\n    \\\"m_Labels\\\": [\\n        \\\"X\\\",\\n        \\\"Y\\\"\\n    ],\\n    \\\"m_Channel\\\": 0\\n}\"\n        },\n        {\n            \"typeInfo\": {\n                \"fullName\": \"UnityEditor.ShaderGraph.SamplerStateMaterialSlot\"\n            },\n            \"JSONnodeData\": \"{\\n    \\\"m_Id\\\": 3,\\n    \\\"m_DisplayName\\\": \\\"Sampler\\\",\\n    \\\"m_SlotType\\\": 0,\\n    \\\"m_Priority\\\": 2147483647,\\n    \\\"m_Hidden\\\": false,\\n    \\\"m_ShaderOutputName\\\": \\\"Sampler\\\",\\n    \\\"m_StageCapability\\\": 3\\n}\"\n        }\n    ],\n    \"m_PreviewExpanded\": true,\n    \"m_TextureType\": 0,\n    \"m_NormalMapSpace\": 0\n}"
        },
        {
            "typeInfo": {
                "fullName": "UnityEditor.ShaderGraph.UnlitMasterNode"
            },
            "JSONnodeData": "{\n    \"m_GuidSerialized\": \"60241a1e-d5d8-4537-ad2f-4f8ae1056082\",\n    \"m_Name\": \"Unlit Master\",\n    \"m_DrawState\": {\n        \"m_Expanded\": true,\n        \"m_Position\": {\n            \"serializedVersion\": \"2\",\n            \"x\": 1129.927001953125,\n            \"y\": -210.896240234375,\n            \"width\": 208.0,\n            \"height\": 350.0\n        }\n    },\n    \"m_SerializableSlots\": [\n        {\n            \"typeInfo\": {\n                \"fullName\": \"UnityEditor.ShaderGraph.PositionMaterialSlot\"\n            },\n            \"JSONnodeData\": \"{\\n    \\\"m_Id\\\": 9,\\n    \\\"m_DisplayName\\\": \\\"Position\\\",\\n    \\\"m_SlotType\\\": 0,\\n    \\\"m_Priority\\\": 2147483647,\\n    \\\"m_Hidden\\\": false,\\n    \\\"m_ShaderOutputName\\\": \\\"Position\\\",\\n    \\\"m_StageCapability\\\": 1,\\n    \\\"m_Value\\\": {\\n        \\\"x\\\": 0.0,\\n        \\\"y\\\": 0.0,\\n        \\\"z\\\": 0.0\\n    },\\n    \\\"m_DefaultValue\\\": {\\n        \\\"x\\\": 0.0,\\n        \\\"y\\\": 0.0,\\n        \\\"z\\\": 0.0\\n    },\\n    \\\"m_Labels\\\": [\\n        \\\"X\\\",\\n        \\\"Y\\\",\\n        \\\"Z\\\"\\n    ],\\n    \\\"m_Space\\\": 0\\n}\"\n        },\n        {\n            \"typeInfo\": {\n                \"fullName\": \"UnityEditor.ShaderGraph.ColorRGBMaterialSlot\"\n            },\n            \"JSONnodeData\": \"{\\n    \\\"m_Id\\\": 0,\\n    \\\"m_DisplayName\\\": \\\"Color\\\",\\n    \\\"m_SlotType\\\": 0,\\n    \\\"m_Priority\\\": 2147483647,\\n    \\\"m_Hidden\\\": false,\\n    \\\"m_ShaderOutputName\\\": \\\"Color\\\",\\n    \\\"m_StageCapability\\\": 2,\\n    \\\"m_Value\\\": {\\n        \\\"x\\\": 0.5,\\n        \\\"y\\\": 0.5,\\n        \\\"z\\\": 0.5\\n    },\\n    \\\"m_DefaultValue\\\": {\\n        \\\"x\\\": 0.0,\\n        \\\"y\\\": 0.0,\\n        \\\"z\\\": 0.0\\n    },\\n    \\\"m_Labels\\\": [\\n        \\\"X\\\",\\n        \\\"Y\\\",\\n        \\\"Z\\\"\\n    ],\\n    \\\"m_ColorMode\\\": 0\\n}\"\n        },\n        {\n            \"typeInfo\": {\n                \"fullName\": \"UnityEditor.ShaderGraph.Vector1MaterialSlot\"\n            },\n            \"JSONnodeData\": \"{\\n    \\\"m_Id\\\": 7,\\n    \\\"m_DisplayName\\\": \\\"Alpha\\\",\\n    \\\"m_SlotType\\\": 0,\\n    \\\"m_Priority\\\": 2147483647,\\n    \\\"m_Hidden\\\": false,\\n    \\\"m_ShaderOutputName\\\": \\\"Alpha\\\",\\n    \\\"m_StageCapability\\\": 2,\\n    \\\"m_Value\\\": 1.0,\\n    \\\"m_DefaultValue\\\": 1.0,\\n    \\\"m_Labels\\\": [\\n        \\\"X\\\"\\n    ]\\n}\"\n        },\n        {\n            \"typeInfo\": {\n                \"fullName\": \"UnityEditor.ShaderGraph.Vector1MaterialSlot\"\n            },\n            \"JSONnodeData\": \"{\\n    \\\"m_Id\\\": 8,\\n    \\\"m_DisplayName\\\": \\\"AlphaClipThreshold\\\",\\n    \\\"m_SlotType\\\": 0,\\n    \\\"m_Priority\\\": 2147483647,\\n    \\\"m_Hidden\\\": false,\\n    \\\"m_ShaderOutputName\\\": \\\"AlphaClipThreshold\\\",\\n    \\\"m_StageCapability\\\": 2,\\n    \\\"m_Value\\\": 0.0,\\n    \\\"m_DefaultValue\\\": 0.0,\\n    \\\"m_Labels\\\": [\\n        \\\"X\\\"\\n    ]\\n}\"\n        }\n    ],\n    \"m_PreviewExpanded\": true,\n    \"m_SerializableSubShaders\": [\n        {\n            \"typeInfo\": {\n                \"fullName\": \"UnityEngine.Experimental.Rendering.LightweightPipeline.LightWeightUnlitSubShader\"\n            },\n            \"JSONnodeData\": \"{}\"\n        }\n    ],\n    \"m_SurfaceType\": 1,\n    \"m_AlphaMode\": 2,\n    \"m_TwoSided\": true\n}"
        }
    ],
    "m_SerializableEdges": [
        {
            "typeInfo": {
                "fullName": "UnityEditor.Graphing.Edge"
            },
            "JSONnodeData": "{\n    \"m_OutputSlot\": {\n        \"m_SlotId\": 6,\n        \"m_NodeGUIDSerialized\": \"22814a8f-bca7-4611-b0f4-d02462431a5b\"\n    },\n    \"m_InputSlot\": {\n        \"m_SlotId\": 2,\n        \"m_NodeGUIDSerialized\": \"07ae5453-f887-4615-9613-a2cdfa912ccd\"\n    }\n}"
        },
        {
            "typeInfo": {
                "fullName": "UnityEditor.Graphing.Edge"
            },
            "JSONnodeData": "{\n    \"m_OutputSlot\": {\n        \"m_SlotId\": 2,\n        \"m_NodeGUIDSerialized\": \"fb01c6c8-994a-4043-9ea3-c6d325cbf734\"\n    },\n    \"m_InputSlot\": {\n        \"m_SlotId\": 0,\n        \"m_NodeGUIDSerialized\": \"22814a8f-bca7-4611-b0f4-d02462431a5b\"\n    }\n}"
        },
        {
            "typeInfo": {
                "fullName": "UnityEditor.Graphing.Edge"
            },
            "JSONnodeData": "{\n    \"m_OutputSlot\": {\n        \"m_SlotId\": 0,\n        \"m_NodeGUIDSerialized\": \"79fee3c6-957e-47cd-a0a8-dea29a687e6c\"\n    },\n    \"m_InputSlot\": {\n        \"m_SlotId\": 0,\n        \"m_NodeGUIDSerialized\": \"fb01c6c8-994a-4043-9ea3-c6d325cbf734\"\n    }\n}"
        },
        {
            "typeInfo": {
                "fullName": "UnityEditor.Graphing.Edge"
            },
            "JSONnodeData": "{\n    \"m_OutputSlot\": {\n        \"m_SlotId\": 0,\n        \"m_NodeGUIDSerialized\": \"79fee3c6-957e-47cd-a0a8-dea29a687e6c\"\n    },\n    \"m_InputSlot\": {\n        \"m_SlotId\": 0,\n        \"m_NodeGUIDSerialized\": \"d5bb24ba-a302-4cc7-afc5-fa863b41cd68\"\n    }\n}"
        },
        {
            "typeInfo": {
                "fullName": "UnityEditor.Graphing.Edge"
            },
            "JSONnodeData": "{\n    \"m_OutputSlot\": {\n        \"m_SlotId\": 1,\n        \"m_NodeGUIDSerialized\": \"e8aaf43d-d84e-4395-a461-07caff02a685\"\n    },\n    \"m_InputSlot\": {\n        \"m_SlotId\": 1,\n        \"m_NodeGUIDSerialized\": \"fb01c6c8-994a-4043-9ea3-c6d325cbf734\"\n    }\n}"
        },
        {
            "typeInfo": {
                "fullName": "UnityEditor.Graphing.Edge"
            },
            "JSONnodeData": "{\n    \"m_OutputSlot\": {\n        \"m_SlotId\": 2,\n        \"m_NodeGUIDSerialized\": \"e8aaf43d-d84e-4395-a461-07caff02a685\"\n    },\n    \"m_InputSlot\": {\n        \"m_SlotId\": 1,\n        \"m_NodeGUIDSerialized\": \"d5bb24ba-a302-4cc7-afc5-fa863b41cd68\"\n    }\n}"
        },
        {
            "typeInfo": {
                "fullName": "UnityEditor.Graphing.Edge"
            },
            "JSONnodeData": "{\n    \"m_OutputSlot\": {\n        \"m_SlotId\": 2,\n        \"m_NodeGUIDSerialized\": \"d5bb24ba-a302-4cc7-afc5-fa863b41cd68\"\n    },\n    \"m_InputSlot\": {\n        \"m_SlotId\": 0,\n        \"m_NodeGUIDSerialized\": \"c48db55a-c870-4cf3-a6a0-75a7f8f73cbd\"\n    }\n}"
        },
        {
            "typeInfo": {
                "fullName": "UnityEditor.Graphing.Edge"
            },
            "JSONnodeData": "{\n    \"m_OutputSlot\": {\n        \"m_SlotId\": 1,\n        \"m_NodeGUIDSerialized\": \"c48db55a-c870-4cf3-a6a0-75a7f8f73cbd\"\n    },\n    \"m_InputSlot\": {\n        \"m_SlotId\": 1,\n        \"m_NodeGUIDSerialized\": \"22814a8f-bca7-4611-b0f4-d02462431a5b\"\n    }\n}"
        },
        {
            "typeInfo": {
                "fullName": "UnityEditor.Graphing.Edge"
            },
            "JSONnodeData": "{\n    \"m_OutputSlot\": {\n        \"m_SlotId\": 0,\n        \"m_NodeGUIDSerialized\": \"2bb0074b-7ace-43e7-a0ff-74cb753f6d2c\"\n    },\n    \"m_InputSlot\": {\n        \"m_SlotId\": 1,\n        \"m_NodeGUIDSerialized\": \"16bfab58-0ccd-4710-9574-5ccaf850c46c\"\n    }\n}"
        },
        {
            "typeInfo": {
                "fullName": "UnityEditor.Graphing.Edge"
            },
            "JSONnodeData": "{\n    \"m_OutputSlot\": {\n        \"m_SlotId\": 0,\n        \"m_NodeGUIDSerialized\": \"4c9a9a4b-9b5e-492a-8565-b294813f6dd6\"\n    },\n    \"m_InputSlot\": {\n        \"m_SlotId\": 1,\n        \"m_NodeGUIDSerialized\": \"07ae5453-f887-4615-9613-a2cdfa912ccd\"\n    }\n}"
        },
        {
            "typeInfo": {
                "fullName": "UnityEditor.Graphing.Edge"
            },
            "JSONnodeData": "{\n    \"m_OutputSlot\": {\n        \"m_SlotId\": 0,\n        \"m_NodeGUIDSerialized\": \"6707e2a2-a5da-4748-ae3a-a315433e5a4b\"\n    },\n    \"m_InputSlot\": {\n        \"m_SlotId\": 0,\n        \"m_NodeGUIDSerialized\": \"e8aaf43d-d84e-4395-a461-07caff02a685\"\n    }\n}"
        },
        {
            "typeInfo": {
                "fullName": "UnityEditor.Graphing.Edge"
            },
            "JSONnodeData": "{\n    \"m_OutputSlot\": {\n        \"m_SlotId\": 0,\n        \"m_NodeGUIDSerialized\": \"154636aa-ea56-4e3a-a91e-e973203ddf46\"\n    },\n    \"m_InputSlot\": {\n        \"m_SlotId\": 0,\n        \"m_NodeGUIDSerialized\": \"294e9fa1-0dce-4481-a4fa-bab68ccd5093\"\n    }\n}"
        },
        {
            "typeInfo": {
                "fullName": "UnityEditor.Graphing.Edge"
            },
            "JSONnodeData": "{\n    \"m_OutputSlot\": {\n        \"m_SlotId\": 0,\n        \"m_NodeGUIDSerialized\": \"3ad0b991-9556-4d61-b189-9e2b63d3df74\"\n    },\n    \"m_InputSlot\": {\n        \"m_SlotId\": 0,\n        \"m_NodeGUIDSerialized\": \"f9a15372-d9db-4791-8548-cf4ae3f8f603\"\n    }\n}"
        },
        {
            "typeInfo": {
                "fullName": "UnityEditor.Graphing.Edge"
            },
            "JSONnodeData": "{\n    \"m_OutputSlot\": {\n        \"m_SlotId\": 2,\n        \"m_NodeGUIDSerialized\": \"bbf46341-c5ca-4088-abc8-a01838b34117\"\n    },\n    \"m_InputSlot\": {\n        \"m_SlotId\": 1,\n        \"m_NodeGUIDSerialized\": \"f9a15372-d9db-4791-8548-cf4ae3f8f603\"\n    }\n}"
        },
        {
            "typeInfo": {
                "fullName": "UnityEditor.Graphing.Edge"
            },
            "JSONnodeData": "{\n    \"m_OutputSlot\": {\n        \"m_SlotId\": 4,\n        \"m_NodeGUIDSerialized\": \"294e9fa1-0dce-4481-a4fa-bab68ccd5093\"\n    },\n    \"m_InputSlot\": {\n        \"m_SlotId\": 1,\n        \"m_NodeGUIDSerialized\": \"bbf46341-c5ca-4088-abc8-a01838b34117\"\n    }\n}"
        },
        {
            "typeInfo": {
                "fullName": "UnityEditor.Graphing.Edge"
            },
            "JSONnodeData": "{\n    \"m_OutputSlot\": {\n        \"m_SlotId\": 0,\n        \"m_NodeGUIDSerialized\": \"16bfab58-0ccd-4710-9574-5ccaf850c46c\"\n    },\n    \"m_InputSlot\": {\n        \"m_SlotId\": 0,\n        \"m_NodeGUIDSerialized\": \"6c860f4d-ae10-4de5-802a-7b7bc93e779b\"\n    }\n}"
        },
        {
            "typeInfo": {
                "fullName": "UnityEditor.Graphing.Edge"
            },
            "JSONnodeData": "{\n    \"m_OutputSlot\": {\n        \"m_SlotId\": 2,\n        \"m_NodeGUIDSerialized\": \"6c860f4d-ae10-4de5-802a-7b7bc93e779b\"\n    },\n    \"m_InputSlot\": {\n        \"m_SlotId\": 0,\n        \"m_NodeGUIDSerialized\": \"bbf46341-c5ca-4088-abc8-a01838b34117\"\n    }\n}"
        },
        {
            "typeInfo": {
                "fullName": "UnityEditor.Graphing.Edge"
            },
            "JSONnodeData": "{\n    \"m_OutputSlot\": {\n        \"m_SlotId\": 2,\n        \"m_NodeGUIDSerialized\": \"f9a15372-d9db-4791-8548-cf4ae3f8f603\"\n    },\n    \"m_InputSlot\": {\n        \"m_SlotId\": 0,\n        \"m_NodeGUIDSerialized\": \"60241a1e-d5d8-4537-ad2f-4f8ae1056082\"\n    }\n}"
        },
        {
            "typeInfo": {
                "fullName": "UnityEditor.Graphing.Edge"
            },
            "JSONnodeData": "{\n    \"m_OutputSlot\": {\n        \"m_SlotId\": 3,\n        \"m_NodeGUIDSerialized\": \"07ae5453-f887-4615-9613-a2cdfa912ccd\"\n    },\n    \"m_InputSlot\": {\n        \"m_SlotId\": 2,\n        \"m_NodeGUIDSerialized\": \"16bfab58-0ccd-4710-9574-5ccaf850c46c\"\n    }\n}"
        }
    ],
    "m_PreviewData": {
        "serializedMesh": {
            "m_SerializedMesh": "",
            "m_Guid": ""
        }
    },
    "m_Path": "Shader Graphs"
}